%YAML 1.1
%TAG !u! tag:unity3d.com,2011:
--- !u!1 &7745361697521018705
GameObject:
  m_ObjectHideFlags: 0
  m_CorrespondingSourceObject: {fileID: 0}
  m_PrefabInstance: {fileID: 0}
  m_PrefabAsset: {fileID: 0}
  serializedVersion: 6
  m_Component:
  - component: {fileID: 7745361697521018704}
  m_Layer: 0
  m_Name: Blocks
  m_TagString: Untagged
  m_Icon: {fileID: 0}
  m_NavMeshLayer: 0
  m_StaticEditorFlags: 0
  m_IsActive: 1
--- !u!4 &7745361697521018704
Transform:
  m_ObjectHideFlags: 0
  m_CorrespondingSourceObject: {fileID: 0}
  m_PrefabInstance: {fileID: 0}
  m_PrefabAsset: {fileID: 0}
  m_GameObject: {fileID: 7745361697521018705}
  m_LocalRotation: {x: 0, y: 0, z: 0, w: 1}
  m_LocalPosition: {x: -44.2, y: 0.7, z: 13.3}
  m_LocalScale: {x: 0.32987493, y: 0.32987493, z: 0.32987493}
  m_Children:
  - {fileID: 7742674141389293611}
  - {fileID: 7742674140226236625}
  m_Father: {fileID: 0}
  m_RootOrder: 0
  m_LocalEulerAnglesHint: {x: 0, y: 0, z: 0}
--- !u!1001 &7745361696105032647
PrefabInstance:
  m_ObjectHideFlags: 0
  serializedVersion: 2
  m_Modification:
    m_TransformParent: {fileID: 7745361697521018704}
    m_Modifications:
    - target: {fileID: 4095090834823958, guid: 259ef83e5245a62418a1e8f725a531eb, type: 3}
      propertyPath: m_RootOrder
      value: 1
      objectReference: {fileID: 0}
    - target: {fileID: 4095090834823958, guid: 259ef83e5245a62418a1e8f725a531eb, type: 3}
      propertyPath: m_LocalPosition.x
      value: -38.5
      objectReference: {fileID: 0}
    - target: {fileID: 4095090834823958, guid: 259ef83e5245a62418a1e8f725a531eb, type: 3}
      propertyPath: m_LocalPosition.y
      value: -9.7
      objectReference: {fileID: 0}
    - target: {fileID: 4095090834823958, guid: 259ef83e5245a62418a1e8f725a531eb, type: 3}
      propertyPath: m_LocalPosition.z
      value: 0.28125
      objectReference: {fileID: 0}
    - target: {fileID: 4095090834823958, guid: 259ef83e5245a62418a1e8f725a531eb, type: 3}
      propertyPath: m_LocalRotation.w
      value: 1
      objectReference: {fileID: 0}
    - target: {fileID: 4095090834823958, guid: 259ef83e5245a62418a1e8f725a531eb, type: 3}
      propertyPath: m_LocalRotation.x
      value: -0
      objectReference: {fileID: 0}
    - target: {fileID: 4095090834823958, guid: 259ef83e5245a62418a1e8f725a531eb, type: 3}
      propertyPath: m_LocalRotation.y
      value: -0
      objectReference: {fileID: 0}
    - target: {fileID: 4095090834823958, guid: 259ef83e5245a62418a1e8f725a531eb, type: 3}
      propertyPath: m_LocalRotation.z
      value: -0
      objectReference: {fileID: 0}
    m_RemovedComponents: []
  m_SourcePrefab: {fileID: 100100000, guid: 259ef83e5245a62418a1e8f725a531eb, type: 3}
--- !u!4 &7742674140226236625 stripped
Transform:
  m_CorrespondingSourceObject: {fileID: 4095090834823958, guid: 259ef83e5245a62418a1e8f725a531eb, type: 3}
  m_PrefabInstance: {fileID: 7745361696105032647}
  m_PrefabAsset: {fileID: 0}
--- !u!1001 &7745361697351979837
PrefabInstance:
  m_ObjectHideFlags: 0
  serializedVersion: 2
  m_Modification:
    m_TransformParent: {fileID: 7745361697521018704}
    m_Modifications:
    - target: {fileID: 1220916975810834, guid: 259ef83e5245a62418a1e8f725a531eb, type: 3}
      propertyPath: m_Name
      value: Blocks Small 1 (1)
      objectReference: {fileID: 0}
    - target: {fileID: 4095090834823958, guid: 259ef83e5245a62418a1e8f725a531eb, type: 3}
      propertyPath: m_RootOrder
      value: 0
      objectReference: {fileID: 0}
    - target: {fileID: 4095090834823958, guid: 259ef83e5245a62418a1e8f725a531eb, type: 3}
      propertyPath: m_LocalPosition.x
      value: -54.8
      objectReference: {fileID: 0}
    - target: {fileID: 4095090834823958, guid: 259ef83e5245a62418a1e8f725a531eb, type: 3}
      propertyPath: m_LocalPosition.y
      value: -12.9
      objectReference: {fileID: 0}
    - target: {fileID: 4095090834823958, guid: 259ef83e5245a62418a1e8f725a531eb, type: 3}
      propertyPath: m_LocalPosition.z
      value: -0.29
      objectReference: {fileID: 0}
    - target: {fileID: 4095090834823958, guid: 259ef83e5245a62418a1e8f725a531eb, type: 3}
      propertyPath: m_LocalRotation.w
      value: 1
      objectReference: {fileID: 0}
    - target: {fileID: 4095090834823958, guid: 259ef83e5245a62418a1e8f725a531eb, type: 3}
      propertyPath: m_LocalRotation.x
      value: -0
      objectReference: {fileID: 0}
    - target: {fileID: 4095090834823958, guid: 259ef83e5245a62418a1e8f725a531eb, type: 3}
      propertyPath: m_LocalRotation.y
      value: -0
      objectReference: {fileID: 0}
    - target: {fileID: 4095090834823958, guid: 259ef83e5245a62418a1e8f725a531eb, type: 3}
      propertyPath: m_LocalRotation.z
      value: -0
      objectReference: {fileID: 0}
    m_RemovedComponents: []
  m_SourcePrefab: {fileID: 100100000, guid: 259ef83e5245a62418a1e8f725a531eb, type: 3}
--- !u!4 &7742674141389293611 stripped
Transform:
  m_CorrespondingSourceObject: {fileID: 4095090834823958, guid: 259ef83e5245a62418a1e8f725a531eb, type: 3}
  m_PrefabInstance: {fileID: 7745361697351979837}
  m_PrefabAsset: {fileID: 0}
