%YAML 1.1
%TAG !u! tag:unity3d.com,2011:
--- !u!1 &2271839208482765173
GameObject:
  m_ObjectHideFlags: 0
  m_CorrespondingSourceObject: {fileID: 1902902407159434, guid: 55ff042751668034a9cfe4c0dce490c7, type: 2}
  m_PrefabInstance: {fileID: 0}
  m_PrefabAsset: {fileID: 0}
  serializedVersion: 6
  m_Component:
  - component: {fileID: 2271839207715906817}
  m_Layer: 0
  m_Name: Forest 1
  m_TagString: Untagged
  m_Icon: {fileID: 0}
  m_NavMeshLayer: 0
  m_StaticEditorFlags: 0
  m_IsActive: 1
--- !u!4 &2271839207715906817
Transform:
  m_ObjectHideFlags: 0
  m_CorrespondingSourceObject: {fileID: 4798624491840834, guid: 55ff042751668034a9cfe4c0dce490c7, type: 2}
  m_PrefabInstance: {fileID: 0}
  m_PrefabAsset: {fileID: 0}
  m_GameObject: {fileID: 2271839208482765173}
  m_LocalRotation: {x: 0, y: 0, z: 0, w: 1}
  m_LocalPosition: {x: -20.5, y: 4.69, z: 14.1}
  m_LocalScale: {x: 0.32987493, y: 0.32987493, z: 0.32987493}
  m_Children:
  - {fileID: 2276135596219844914}
  m_Father: {fileID: 0}
  m_RootOrder: 0
  m_LocalEulerAnglesHint: {x: 0, y: 0, z: 0}
--- !u!1001 &2271839207868262506
PrefabInstance:
  m_ObjectHideFlags: 0
  serializedVersion: 2
  m_Modification:
    m_TransformParent: {fileID: 2271839207715906817}
    m_Modifications:
    - target: {fileID: 4860918936936792, guid: 024606f896ece7c4290812c295930980, type: 3}
      propertyPath: m_RootOrder
      value: 0
      objectReference: {fileID: 0}
    - target: {fileID: 4860918936936792, guid: 024606f896ece7c4290812c295930980, type: 3}
      propertyPath: m_LocalPosition.x
      value: 4.4139004
      objectReference: {fileID: 0}
    - target: {fileID: 4860918936936792, guid: 024606f896ece7c4290812c295930980, type: 3}
      propertyPath: m_LocalPosition.y
      value: -17.77751
      objectReference: {fileID: 0}
    - target: {fileID: 4860918936936792, guid: 024606f896ece7c4290812c295930980, type: 3}
      propertyPath: m_LocalPosition.z
      value: 0
      objectReference: {fileID: 0}
    - target: {fileID: 4860918936936792, guid: 024606f896ece7c4290812c295930980, type: 3}
      propertyPath: m_LocalRotation.w
      value: 1
      objectReference: {fileID: 0}
    - target: {fileID: 4860918936936792, guid: 024606f896ece7c4290812c295930980, type: 3}
      propertyPath: m_LocalRotation.x
      value: -0
      objectReference: {fileID: 0}
    - target: {fileID: 4860918936936792, guid: 024606f896ece7c4290812c295930980, type: 3}
      propertyPath: m_LocalRotation.y
      value: -0
      objectReference: {fileID: 0}
    - target: {fileID: 4860918936936792, guid: 024606f896ece7c4290812c295930980, type: 3}
      propertyPath: m_LocalRotation.z
      value: -0
      objectReference: {fileID: 0}
    m_RemovedComponents: []
  m_SourcePrefab: {fileID: 100100000, guid: 024606f896ece7c4290812c295930980, type: 3}
--- !u!4 &2276135596219844914 stripped
Transform:
  m_CorrespondingSourceObject: {fileID: 4860918936936792, guid: 024606f896ece7c4290812c295930980, type: 3}
  m_PrefabInstance: {fileID: 2271839207868262506}
  m_PrefabAsset: {fileID: 0}
