%YAML 1.1
%TAG !u! tag:unity3d.com,2011:
--- !u!29 &1
OcclusionCullingSettings:
  m_ObjectHideFlags: 0
  serializedVersion: 2
  m_OcclusionBakeSettings:
    smallestOccluder: 5
    smallestHole: 0.25
    backfaceThreshold: 100
  m_SceneGUID: 00000000000000000000000000000000
  m_OcclusionCullingData: {fileID: 0}
--- !u!104 &2
RenderSettings:
  m_ObjectHideFlags: 0
  serializedVersion: 9
  m_Fog: 0
  m_FogColor: {r: 0.5, g: 0.5, b: 0.5, a: 1}
  m_FogMode: 3
  m_FogDensity: 0.01
  m_LinearFogStart: 0
  m_LinearFogEnd: 300
  m_AmbientSkyColor: {r: 0.212, g: 0.227, b: 0.259, a: 1}
  m_AmbientEquatorColor: {r: 0.114, g: 0.125, b: 0.133, a: 1}
  m_AmbientGroundColor: {r: 0.047, g: 0.043, b: 0.035, a: 1}
  m_AmbientIntensity: 1
  m_AmbientMode: 3
  m_SubtractiveShadowColor: {r: 0.42, g: 0.478, b: 0.627, a: 1}
  m_SkyboxMaterial: {fileID: 0}
  m_HaloStrength: 0.5
  m_FlareStrength: 1
  m_FlareFadeSpeed: 3
  m_HaloTexture: {fileID: 0}
  m_SpotCookie: {fileID: 10001, guid: 0000000000000000e000000000000000, type: 0}
  m_DefaultReflectionMode: 0
  m_DefaultReflectionResolution: 128
  m_ReflectionBounces: 1
  m_ReflectionIntensity: 1
  m_CustomReflection: {fileID: 0}
  m_Sun: {fileID: 0}
  m_IndirectSpecularColor: {r: 0, g: 0, b: 0, a: 1}
  m_UseRadianceAmbientProbe: 0
--- !u!157 &3
LightmapSettings:
  m_ObjectHideFlags: 0
  serializedVersion: 12
  m_GIWorkflowMode: 1
  m_GISettings:
    serializedVersion: 2
    m_BounceScale: 1
    m_IndirectOutputScale: 1
    m_AlbedoBoost: 1
    m_EnvironmentLightingMode: 0
    m_EnableBakedLightmaps: 0
    m_EnableRealtimeLightmaps: 0
  m_LightmapEditorSettings:
    serializedVersion: 12
    m_Resolution: 2
    m_BakeResolution: 40
    m_AtlasSize: 1024
    m_AO: 0
    m_AOMaxDistance: 1
    m_CompAOExponent: 1
    m_CompAOExponentDirect: 0
    m_ExtractAmbientOcclusion: 0
    m_Padding: 2
    m_LightmapParameters: {fileID: 0}
    m_LightmapsBakeMode: 1
    m_TextureCompression: 1
    m_FinalGather: 0
    m_FinalGatherFiltering: 1
    m_FinalGatherRayCount: 256
    m_ReflectionCompression: 2
    m_MixedBakeMode: 2
    m_BakeBackend: 0
    m_PVRSampling: 1
    m_PVRDirectSampleCount: 32
    m_PVRSampleCount: 500
    m_PVRBounces: 2
    m_PVREnvironmentSampleCount: 500
    m_PVREnvironmentReferencePointCount: 2048
    m_PVRFilteringMode: 2
    m_PVRDenoiserTypeDirect: 0
    m_PVRDenoiserTypeIndirect: 0
    m_PVRDenoiserTypeAO: 0
    m_PVRFilterTypeDirect: 0
    m_PVRFilterTypeIndirect: 0
    m_PVRFilterTypeAO: 0
    m_PVREnvironmentMIS: 0
    m_PVRCulling: 1
    m_PVRFilteringGaussRadiusDirect: 1
    m_PVRFilteringGaussRadiusIndirect: 5
    m_PVRFilteringGaussRadiusAO: 2
    m_PVRFilteringAtrousPositionSigmaDirect: 0.5
    m_PVRFilteringAtrousPositionSigmaIndirect: 2
    m_PVRFilteringAtrousPositionSigmaAO: 1
    m_ExportTrainingData: 0
    m_TrainingDataDestination: TrainingData
    m_LightProbeSampleCountMultiplier: 4
  m_LightingDataAsset: {fileID: 0}
  m_LightingSettings: {fileID: 4890085278179872738, guid: be1d4e8ba66d1024894971b628e23624, type: 2}
--- !u!196 &4
NavMeshSettings:
  serializedVersion: 2
  m_ObjectHideFlags: 0
  m_BuildSettings:
    serializedVersion: 2
    agentTypeID: 0
    agentRadius: 0.5
    agentHeight: 2
    agentSlope: 45
    agentClimb: 0.4
    ledgeDropHeight: 0
    maxJumpAcrossDistance: 0
    minRegionArea: 2
    manualCellSize: 0
    cellSize: 0.16666667
    manualTileSize: 0
    tileSize: 256
    accuratePlacement: 0
    maxJobWorkers: 0
    preserveTilesOutsideBounds: 0
    debug:
      m_Flags: 0
  m_NavMeshData: {fileID: 0}
--- !u!1001 &27336859
PrefabInstance:
  m_ObjectHideFlags: 0
  serializedVersion: 2
  m_Modification:
    m_TransformParent: {fileID: 1629422318}
    m_Modifications:
    - target: {fileID: 1865683774560366, guid: 42fc513ba3b20c643942adda24484b55, type: 3}
      propertyPath: m_Name
      value: Night Clouds 2 (2)
      objectReference: {fileID: 0}
    - target: {fileID: 4611876675833100, guid: 42fc513ba3b20c643942adda24484b55, type: 3}
      propertyPath: m_LocalPosition.x
      value: 16.05
      objectReference: {fileID: 0}
    - target: {fileID: 4611876675833100, guid: 42fc513ba3b20c643942adda24484b55, type: 3}
      propertyPath: m_LocalPosition.y
      value: 7.4
      objectReference: {fileID: 0}
    - target: {fileID: 4620439350207392, guid: 42fc513ba3b20c643942adda24484b55, type: 3}
      propertyPath: m_RootOrder
      value: 10
      objectReference: {fileID: 0}
    - target: {fileID: 4620439350207392, guid: 42fc513ba3b20c643942adda24484b55, type: 3}
      propertyPath: m_LocalPosition.x
      value: 24.95
      objectReference: {fileID: 0}
    - target: {fileID: 4620439350207392, guid: 42fc513ba3b20c643942adda24484b55, type: 3}
      propertyPath: m_LocalPosition.y
      value: 1.14
      objectReference: {fileID: 0}
    - target: {fileID: 4620439350207392, guid: 42fc513ba3b20c643942adda24484b55, type: 3}
      propertyPath: m_LocalPosition.z
      value: 0
      objectReference: {fileID: 0}
    - target: {fileID: 4620439350207392, guid: 42fc513ba3b20c643942adda24484b55, type: 3}
      propertyPath: m_LocalRotation.w
      value: 1
      objectReference: {fileID: 0}
    - target: {fileID: 4620439350207392, guid: 42fc513ba3b20c643942adda24484b55, type: 3}
      propertyPath: m_LocalRotation.x
      value: -0
      objectReference: {fileID: 0}
    - target: {fileID: 4620439350207392, guid: 42fc513ba3b20c643942adda24484b55, type: 3}
      propertyPath: m_LocalRotation.y
      value: -0
      objectReference: {fileID: 0}
    - target: {fileID: 4620439350207392, guid: 42fc513ba3b20c643942adda24484b55, type: 3}
      propertyPath: m_LocalRotation.z
      value: -0
      objectReference: {fileID: 0}
    - target: {fileID: 212068778746808572, guid: 42fc513ba3b20c643942adda24484b55, type: 3}
      propertyPath: m_Sprite
      value: 
      objectReference: {fileID: 21300000, guid: c50f97e0c6a39be47995644d8182c316, type: 3}
    - target: {fileID: 212149464883951026, guid: 42fc513ba3b20c643942adda24484b55, type: 3}
      propertyPath: m_Sprite
      value: 
      objectReference: {fileID: 21300000, guid: 0c04352bef71fd8439af7e08ecc997ba, type: 3}
    - target: {fileID: 212859462463906018, guid: 42fc513ba3b20c643942adda24484b55, type: 3}
      propertyPath: m_Sprite
      value: 
      objectReference: {fileID: 21300000, guid: f412c872af1fe354da52cdd679ef805e, type: 3}
    m_RemovedComponents: []
  m_SourcePrefab: {fileID: 100100000, guid: 42fc513ba3b20c643942adda24484b55, type: 3}
--- !u!4 &27336860 stripped
Transform:
  m_CorrespondingSourceObject: {fileID: 4620439350207392, guid: 42fc513ba3b20c643942adda24484b55, type: 3}
  m_PrefabInstance: {fileID: 27336859}
  m_PrefabAsset: {fileID: 0}
--- !u!1 &74850423
GameObject:
  m_ObjectHideFlags: 0
  m_CorrespondingSourceObject: {fileID: 0}
  m_PrefabInstance: {fileID: 0}
  m_PrefabAsset: {fileID: 0}
  serializedVersion: 6
  m_Component:
  - component: {fileID: 74850424}
  - component: {fileID: 74850425}
  m_Layer: 0
  m_Name: Clouds Day_2 (2)
  m_TagString: Untagged
  m_Icon: {fileID: 0}
  m_NavMeshLayer: 0
  m_StaticEditorFlags: 0
  m_IsActive: 1
--- !u!4 &74850424
Transform:
  m_ObjectHideFlags: 0
  m_CorrespondingSourceObject: {fileID: 0}
  m_PrefabInstance: {fileID: 0}
  m_PrefabAsset: {fileID: 0}
  m_GameObject: {fileID: 74850423}
  m_LocalRotation: {x: -0, y: -0, z: -0, w: 1}
  m_LocalPosition: {x: 13.8, y: 0.9, z: 0}
  m_LocalScale: {x: 0.86433, y: 0.86433, z: 0.86433}
  m_Children: []
  m_Father: {fileID: 1629422318}
  m_RootOrder: 9
  m_LocalEulerAnglesHint: {x: 0, y: 0, z: 0}
--- !u!212 &74850425
SpriteRenderer:
  m_ObjectHideFlags: 0
  m_CorrespondingSourceObject: {fileID: 0}
  m_PrefabInstance: {fileID: 0}
  m_PrefabAsset: {fileID: 0}
  m_GameObject: {fileID: 74850423}
  m_Enabled: 1
  m_CastShadows: 0
  m_ReceiveShadows: 0
  m_DynamicOccludee: 1
  m_MotionVectors: 1
  m_LightProbeUsage: 1
  m_ReflectionProbeUsage: 1
  m_RayTracingMode: 0
  m_RayTraceProcedural: 0
  m_RenderingLayerMask: 1
  m_RendererPriority: 0
  m_Materials:
  - {fileID: 10754, guid: 0000000000000000f000000000000000, type: 0}
  m_StaticBatchInfo:
    firstSubMesh: 0
    subMeshCount: 0
  m_StaticBatchRoot: {fileID: 0}
  m_ProbeAnchor: {fileID: 0}
  m_LightProbeVolumeOverride: {fileID: 0}
  m_ScaleInLightmap: 1
  m_ReceiveGI: 1
  m_PreserveUVs: 0
  m_IgnoreNormalsForChartDetection: 0
  m_ImportantGI: 0
  m_StitchLightmapSeams: 1
  m_SelectedEditorRenderState: 0
  m_MinimumChartSize: 4
  m_AutoUVMaxDistance: 0.5
  m_AutoUVMaxAngle: 89
  m_LightmapParameters: {fileID: 0}
  m_SortingLayerID: 0
  m_SortingLayer: 0
  m_SortingOrder: 0
  m_Sprite: {fileID: 21300000, guid: 0c04352bef71fd8439af7e08ecc997ba, type: 3}
  m_Color: {r: 1, g: 1, b: 1, a: 1}
  m_FlipX: 0
  m_FlipY: 0
  m_DrawMode: 0
  m_Size: {x: 9.55, y: 5.44}
  m_AdaptiveModeThreshold: 0.5
  m_SpriteTileMode: 0
  m_WasSpriteAssigned: 1
  m_MaskInteraction: 0
  m_SpriteSortPoint: 0
--- !u!1001 &81894509
PrefabInstance:
  m_ObjectHideFlags: 0
  serializedVersion: 2
  m_Modification:
    m_TransformParent: {fileID: 1661527041}
    m_Modifications:
    - target: {fileID: 1492490301565106, guid: 024606f896ece7c4290812c295930980, type: 3}
      propertyPath: m_Name
      value: Forest (2)
      objectReference: {fileID: 0}
    - target: {fileID: 4860918936936792, guid: 024606f896ece7c4290812c295930980, type: 3}
      propertyPath: m_RootOrder
      value: 2
      objectReference: {fileID: 0}
    - target: {fileID: 4860918936936792, guid: 024606f896ece7c4290812c295930980, type: 3}
      propertyPath: m_LocalScale.x
      value: 0.80000013
      objectReference: {fileID: 0}
    - target: {fileID: 4860918936936792, guid: 024606f896ece7c4290812c295930980, type: 3}
      propertyPath: m_LocalScale.y
      value: 0.80000013
      objectReference: {fileID: 0}
    - target: {fileID: 4860918936936792, guid: 024606f896ece7c4290812c295930980, type: 3}
      propertyPath: m_LocalScale.z
      value: 0.999985
      objectReference: {fileID: 0}
    - target: {fileID: 4860918936936792, guid: 024606f896ece7c4290812c295930980, type: 3}
      propertyPath: m_LocalPosition.x
      value: -23.01
      objectReference: {fileID: 0}
    - target: {fileID: 4860918936936792, guid: 024606f896ece7c4290812c295930980, type: 3}
      propertyPath: m_LocalPosition.y
      value: -17.64
      objectReference: {fileID: 0}
    - target: {fileID: 4860918936936792, guid: 024606f896ece7c4290812c295930980, type: 3}
      propertyPath: m_LocalPosition.z
      value: 0
      objectReference: {fileID: 0}
    - target: {fileID: 4860918936936792, guid: 024606f896ece7c4290812c295930980, type: 3}
      propertyPath: m_LocalRotation.w
      value: 1
      objectReference: {fileID: 0}
    - target: {fileID: 4860918936936792, guid: 024606f896ece7c4290812c295930980, type: 3}
      propertyPath: m_LocalRotation.x
      value: -0
      objectReference: {fileID: 0}
    - target: {fileID: 4860918936936792, guid: 024606f896ece7c4290812c295930980, type: 3}
      propertyPath: m_LocalRotation.y
      value: -0
      objectReference: {fileID: 0}
    - target: {fileID: 4860918936936792, guid: 024606f896ece7c4290812c295930980, type: 3}
      propertyPath: m_LocalRotation.z
      value: -0
      objectReference: {fileID: 0}
    m_RemovedComponents: []
  m_SourcePrefab: {fileID: 100100000, guid: 024606f896ece7c4290812c295930980, type: 3}
--- !u!4 &81894510 stripped
Transform:
  m_CorrespondingSourceObject: {fileID: 4860918936936792, guid: 024606f896ece7c4290812c295930980, type: 3}
  m_PrefabInstance: {fileID: 81894509}
  m_PrefabAsset: {fileID: 0}
--- !u!4 &92969794 stripped
Transform:
  m_CorrespondingSourceObject: {fileID: 4607309522671758, guid: c000a789eb3a8984c981ef68d15df9fc, type: 3}
  m_PrefabInstance: {fileID: 991636078}
  m_PrefabAsset: {fileID: 0}
--- !u!1001 &137549722
PrefabInstance:
  m_ObjectHideFlags: 0
  serializedVersion: 2
  m_Modification:
    m_TransformParent: {fileID: 1629422318}
    m_Modifications:
    - target: {fileID: 1466706117304618, guid: c000a789eb3a8984c981ef68d15df9fc, type: 3}
      propertyPath: m_Name
      value: NIght Clouds 3 (1)
      objectReference: {fileID: 0}
    - target: {fileID: 4607309522671758, guid: c000a789eb3a8984c981ef68d15df9fc, type: 3}
      propertyPath: m_RootOrder
      value: 7
      objectReference: {fileID: 0}
    - target: {fileID: 4607309522671758, guid: c000a789eb3a8984c981ef68d15df9fc, type: 3}
      propertyPath: m_LocalPosition.x
      value: -87.3
      objectReference: {fileID: 0}
    - target: {fileID: 4607309522671758, guid: c000a789eb3a8984c981ef68d15df9fc, type: 3}
      propertyPath: m_LocalPosition.y
      value: 11.2
      objectReference: {fileID: 0}
    - target: {fileID: 4607309522671758, guid: c000a789eb3a8984c981ef68d15df9fc, type: 3}
      propertyPath: m_LocalPosition.z
      value: 0
      objectReference: {fileID: 0}
    - target: {fileID: 4607309522671758, guid: c000a789eb3a8984c981ef68d15df9fc, type: 3}
      propertyPath: m_LocalRotation.w
      value: 1
      objectReference: {fileID: 0}
    - target: {fileID: 4607309522671758, guid: c000a789eb3a8984c981ef68d15df9fc, type: 3}
      propertyPath: m_LocalRotation.x
      value: -0
      objectReference: {fileID: 0}
    - target: {fileID: 4607309522671758, guid: c000a789eb3a8984c981ef68d15df9fc, type: 3}
      propertyPath: m_LocalRotation.y
      value: -0
      objectReference: {fileID: 0}
    - target: {fileID: 4607309522671758, guid: c000a789eb3a8984c981ef68d15df9fc, type: 3}
      propertyPath: m_LocalRotation.z
      value: -0
      objectReference: {fileID: 0}
    - target: {fileID: 212015848213863480, guid: c000a789eb3a8984c981ef68d15df9fc, type: 3}
      propertyPath: m_Sprite
      value: 
      objectReference: {fileID: 21300000, guid: c50f97e0c6a39be47995644d8182c316, type: 3}
    - target: {fileID: 212845067518182088, guid: c000a789eb3a8984c981ef68d15df9fc, type: 3}
      propertyPath: m_Sprite
      value: 
      objectReference: {fileID: 21300000, guid: 3c1189ca40290404e9ed69b85c29f1fa, type: 3}
    m_RemovedComponents: []
  m_SourcePrefab: {fileID: 100100000, guid: c000a789eb3a8984c981ef68d15df9fc, type: 3}
--- !u!4 &137549723 stripped
Transform:
  m_CorrespondingSourceObject: {fileID: 4607309522671758, guid: c000a789eb3a8984c981ef68d15df9fc, type: 3}
  m_PrefabInstance: {fileID: 137549722}
  m_PrefabAsset: {fileID: 0}
--- !u!1 &162108503
GameObject:
  m_ObjectHideFlags: 0
  m_CorrespondingSourceObject: {fileID: 0}
  m_PrefabInstance: {fileID: 0}
  m_PrefabAsset: {fileID: 0}
  serializedVersion: 6
  m_Component:
  - component: {fileID: 162108505}
  - component: {fileID: 162108504}
  m_Layer: 0
  m_Name: Water Large
  m_TagString: Untagged
  m_Icon: {fileID: 0}
  m_NavMeshLayer: 0
  m_StaticEditorFlags: 0
  m_IsActive: 1
--- !u!212 &162108504
SpriteRenderer:
  m_ObjectHideFlags: 0
  m_CorrespondingSourceObject: {fileID: 0}
  m_PrefabInstance: {fileID: 0}
  m_PrefabAsset: {fileID: 0}
  m_GameObject: {fileID: 162108503}
  m_Enabled: 1
  m_CastShadows: 0
  m_ReceiveShadows: 0
  m_DynamicOccludee: 1
  m_MotionVectors: 1
  m_LightProbeUsage: 1
  m_ReflectionProbeUsage: 1
  m_RayTracingMode: 0
  m_RayTraceProcedural: 0
  m_RenderingLayerMask: 1
  m_RendererPriority: 0
  m_Materials:
  - {fileID: 10754, guid: 0000000000000000f000000000000000, type: 0}
  m_StaticBatchInfo:
    firstSubMesh: 0
    subMeshCount: 0
  m_StaticBatchRoot: {fileID: 0}
  m_ProbeAnchor: {fileID: 0}
  m_LightProbeVolumeOverride: {fileID: 0}
  m_ScaleInLightmap: 1
  m_ReceiveGI: 1
  m_PreserveUVs: 0
  m_IgnoreNormalsForChartDetection: 0
  m_ImportantGI: 0
  m_StitchLightmapSeams: 1
  m_SelectedEditorRenderState: 0
  m_MinimumChartSize: 4
  m_AutoUVMaxDistance: 0.5
  m_AutoUVMaxAngle: 89
  m_LightmapParameters: {fileID: 0}
  m_SortingLayerID: 0
  m_SortingLayer: 0
  m_SortingOrder: 0
  m_Sprite: {fileID: 21300000, guid: 23d89018f27b18d469d38ec57d8eca56, type: 3}
  m_Color: {r: 1, g: 1, b: 1, a: 1}
  m_FlipX: 0
  m_FlipY: 0
  m_DrawMode: 2
  m_Size: {x: 143.62, y: 12.780001}
  m_AdaptiveModeThreshold: 0.5
  m_SpriteTileMode: 0
  m_WasSpriteAssigned: 1
  m_MaskInteraction: 0
  m_SpriteSortPoint: 0
--- !u!4 &162108505
Transform:
  m_ObjectHideFlags: 0
  m_CorrespondingSourceObject: {fileID: 0}
  m_PrefabInstance: {fileID: 0}
  m_PrefabAsset: {fileID: 0}
  m_GameObject: {fileID: 162108503}
  m_LocalRotation: {x: -0, y: -0, z: -0, w: 1}
  m_LocalPosition: {x: 32.686005, y: -7.6277885, z: -53.4}
  m_LocalScale: {x: 1, y: 1, z: 1}
  m_Children: []
  m_Father: {fileID: 1773823115}
  m_RootOrder: 0
  m_LocalEulerAnglesHint: {x: 0, y: 0, z: 0}
--- !u!1001 &217479215
PrefabInstance:
  m_ObjectHideFlags: 0
  serializedVersion: 2
  m_Modification:
    m_TransformParent: {fileID: 1629422318}
    m_Modifications:
    - target: {fileID: 4620439350207392, guid: 42fc513ba3b20c643942adda24484b55, type: 3}
      propertyPath: m_RootOrder
      value: 2
      objectReference: {fileID: 0}
    - target: {fileID: 4620439350207392, guid: 42fc513ba3b20c643942adda24484b55, type: 3}
      propertyPath: m_LocalPosition.x
      value: -87.1
      objectReference: {fileID: 0}
    - target: {fileID: 4620439350207392, guid: 42fc513ba3b20c643942adda24484b55, type: 3}
      propertyPath: m_LocalPosition.y
      value: 4.4
      objectReference: {fileID: 0}
    - target: {fileID: 4620439350207392, guid: 42fc513ba3b20c643942adda24484b55, type: 3}
      propertyPath: m_LocalPosition.z
      value: 0
      objectReference: {fileID: 0}
    - target: {fileID: 4620439350207392, guid: 42fc513ba3b20c643942adda24484b55, type: 3}
      propertyPath: m_LocalRotation.w
      value: 1
      objectReference: {fileID: 0}
    - target: {fileID: 4620439350207392, guid: 42fc513ba3b20c643942adda24484b55, type: 3}
      propertyPath: m_LocalRotation.x
      value: -0
      objectReference: {fileID: 0}
    - target: {fileID: 4620439350207392, guid: 42fc513ba3b20c643942adda24484b55, type: 3}
      propertyPath: m_LocalRotation.y
      value: -0
      objectReference: {fileID: 0}
    - target: {fileID: 4620439350207392, guid: 42fc513ba3b20c643942adda24484b55, type: 3}
      propertyPath: m_LocalRotation.z
      value: -0
      objectReference: {fileID: 0}
    - target: {fileID: 212068778746808572, guid: 42fc513ba3b20c643942adda24484b55, type: 3}
      propertyPath: m_Sprite
      value: 
      objectReference: {fileID: 21300000, guid: c50f97e0c6a39be47995644d8182c316, type: 3}
    - target: {fileID: 212149464883951026, guid: 42fc513ba3b20c643942adda24484b55, type: 3}
      propertyPath: m_Sprite
      value: 
      objectReference: {fileID: 21300000, guid: 0c04352bef71fd8439af7e08ecc997ba, type: 3}
    - target: {fileID: 212859462463906018, guid: 42fc513ba3b20c643942adda24484b55, type: 3}
      propertyPath: m_Sprite
      value: 
      objectReference: {fileID: 21300000, guid: f412c872af1fe354da52cdd679ef805e, type: 3}
    m_RemovedComponents: []
  m_SourcePrefab: {fileID: 100100000, guid: 42fc513ba3b20c643942adda24484b55, type: 3}
--- !u!1001 &277430495
PrefabInstance:
  m_ObjectHideFlags: 0
  serializedVersion: 2
  m_Modification:
    m_TransformParent: {fileID: 756922329}
    m_Modifications:
    - target: {fileID: 1532274206886296, guid: e63bf725018eee447ac5fbd9d66e4781, type: 3}
      propertyPath: m_IsActive
      value: 1
      objectReference: {fileID: 0}
    - target: {fileID: 4734870049203084, guid: e63bf725018eee447ac5fbd9d66e4781, type: 3}
      propertyPath: m_RootOrder
      value: 0
      objectReference: {fileID: 0}
    - target: {fileID: 4734870049203084, guid: e63bf725018eee447ac5fbd9d66e4781, type: 3}
      propertyPath: m_LocalPosition.x
      value: -7.8127975
      objectReference: {fileID: 0}
    - target: {fileID: 4734870049203084, guid: e63bf725018eee447ac5fbd9d66e4781, type: 3}
      propertyPath: m_LocalPosition.y
      value: -3.9803257
      objectReference: {fileID: 0}
    - target: {fileID: 4734870049203084, guid: e63bf725018eee447ac5fbd9d66e4781, type: 3}
      propertyPath: m_LocalPosition.z
      value: 2.6875
      objectReference: {fileID: 0}
    - target: {fileID: 4734870049203084, guid: e63bf725018eee447ac5fbd9d66e4781, type: 3}
      propertyPath: m_LocalRotation.w
      value: 1
      objectReference: {fileID: 0}
    - target: {fileID: 4734870049203084, guid: e63bf725018eee447ac5fbd9d66e4781, type: 3}
      propertyPath: m_LocalRotation.x
      value: -0
      objectReference: {fileID: 0}
    - target: {fileID: 4734870049203084, guid: e63bf725018eee447ac5fbd9d66e4781, type: 3}
      propertyPath: m_LocalRotation.y
      value: -0
      objectReference: {fileID: 0}
    - target: {fileID: 4734870049203084, guid: e63bf725018eee447ac5fbd9d66e4781, type: 3}
      propertyPath: m_LocalRotation.z
      value: -0
      objectReference: {fileID: 0}
    m_RemovedComponents: []
  m_SourcePrefab: {fileID: 100100000, guid: e63bf725018eee447ac5fbd9d66e4781, type: 3}
--- !u!4 &277430496 stripped
Transform:
  m_CorrespondingSourceObject: {fileID: 4734870049203084, guid: e63bf725018eee447ac5fbd9d66e4781, type: 3}
  m_PrefabInstance: {fileID: 277430495}
  m_PrefabAsset: {fileID: 0}
--- !u!1001 &351736260
PrefabInstance:
  m_ObjectHideFlags: 0
  serializedVersion: 2
  m_Modification:
    m_TransformParent: {fileID: 1661527041}
    m_Modifications:
    - target: {fileID: 1492490301565106, guid: 024606f896ece7c4290812c295930980, type: 3}
      propertyPath: m_Name
      value: Forest (1)
      objectReference: {fileID: 0}
    - target: {fileID: 4860918936936792, guid: 024606f896ece7c4290812c295930980, type: 3}
      propertyPath: m_RootOrder
      value: 1
      objectReference: {fileID: 0}
    - target: {fileID: 4860918936936792, guid: 024606f896ece7c4290812c295930980, type: 3}
      propertyPath: m_LocalScale.x
      value: 0.80000013
      objectReference: {fileID: 0}
    - target: {fileID: 4860918936936792, guid: 024606f896ece7c4290812c295930980, type: 3}
      propertyPath: m_LocalScale.y
      value: 0.80000013
      objectReference: {fileID: 0}
    - target: {fileID: 4860918936936792, guid: 024606f896ece7c4290812c295930980, type: 3}
      propertyPath: m_LocalScale.z
      value: 0.999985
      objectReference: {fileID: 0}
    - target: {fileID: 4860918936936792, guid: 024606f896ece7c4290812c295930980, type: 3}
      propertyPath: m_LocalPosition.x
      value: 31.16
      objectReference: {fileID: 0}
    - target: {fileID: 4860918936936792, guid: 024606f896ece7c4290812c295930980, type: 3}
      propertyPath: m_LocalPosition.y
      value: -17.51
      objectReference: {fileID: 0}
    - target: {fileID: 4860918936936792, guid: 024606f896ece7c4290812c295930980, type: 3}
      propertyPath: m_LocalPosition.z
      value: 0
      objectReference: {fileID: 0}
    - target: {fileID: 4860918936936792, guid: 024606f896ece7c4290812c295930980, type: 3}
      propertyPath: m_LocalRotation.w
      value: 1
      objectReference: {fileID: 0}
    - target: {fileID: 4860918936936792, guid: 024606f896ece7c4290812c295930980, type: 3}
      propertyPath: m_LocalRotation.x
      value: -0
      objectReference: {fileID: 0}
    - target: {fileID: 4860918936936792, guid: 024606f896ece7c4290812c295930980, type: 3}
      propertyPath: m_LocalRotation.y
      value: -0
      objectReference: {fileID: 0}
    - target: {fileID: 4860918936936792, guid: 024606f896ece7c4290812c295930980, type: 3}
      propertyPath: m_LocalRotation.z
      value: -0
      objectReference: {fileID: 0}
    m_RemovedComponents: []
  m_SourcePrefab: {fileID: 100100000, guid: 024606f896ece7c4290812c295930980, type: 3}
--- !u!4 &351736261 stripped
Transform:
  m_CorrespondingSourceObject: {fileID: 4860918936936792, guid: 024606f896ece7c4290812c295930980, type: 3}
  m_PrefabInstance: {fileID: 351736260}
  m_PrefabAsset: {fileID: 0}
--- !u!1 &373900270
GameObject:
  m_ObjectHideFlags: 0
  m_CorrespondingSourceObject: {fileID: 0}
  m_PrefabInstance: {fileID: 0}
  m_PrefabAsset: {fileID: 0}
  serializedVersion: 6
  m_Component:
  - component: {fileID: 373900271}
  - component: {fileID: 373900272}
  m_Layer: 0
  m_Name: Water Large (1)
  m_TagString: Untagged
  m_Icon: {fileID: 0}
  m_NavMeshLayer: 0
  m_StaticEditorFlags: 0
  m_IsActive: 1
--- !u!4 &373900271
Transform:
  m_ObjectHideFlags: 0
  m_CorrespondingSourceObject: {fileID: 0}
  m_PrefabInstance: {fileID: 0}
  m_PrefabAsset: {fileID: 0}
  m_GameObject: {fileID: 373900270}
  m_LocalRotation: {x: -0, y: -0, z: -0, w: 1}
  m_LocalPosition: {x: -67.1, y: -7.6277885, z: -53.4}
  m_LocalScale: {x: 1, y: 1, z: 1}
  m_Children: []
  m_Father: {fileID: 1773823115}
  m_RootOrder: 3
  m_LocalEulerAnglesHint: {x: 0, y: 0, z: 0}
--- !u!212 &373900272
SpriteRenderer:
  m_ObjectHideFlags: 0
  m_CorrespondingSourceObject: {fileID: 0}
  m_PrefabInstance: {fileID: 0}
  m_PrefabAsset: {fileID: 0}
  m_GameObject: {fileID: 373900270}
  m_Enabled: 1
  m_CastShadows: 0
  m_ReceiveShadows: 0
  m_DynamicOccludee: 1
  m_MotionVectors: 1
  m_LightProbeUsage: 1
  m_ReflectionProbeUsage: 1
  m_RayTracingMode: 0
  m_RayTraceProcedural: 0
  m_RenderingLayerMask: 1
  m_RendererPriority: 0
  m_Materials:
  - {fileID: 10754, guid: 0000000000000000f000000000000000, type: 0}
  m_StaticBatchInfo:
    firstSubMesh: 0
    subMeshCount: 0
  m_StaticBatchRoot: {fileID: 0}
  m_ProbeAnchor: {fileID: 0}
  m_LightProbeVolumeOverride: {fileID: 0}
  m_ScaleInLightmap: 1
  m_ReceiveGI: 1
  m_PreserveUVs: 0
  m_IgnoreNormalsForChartDetection: 0
  m_ImportantGI: 0
  m_StitchLightmapSeams: 1
  m_SelectedEditorRenderState: 0
  m_MinimumChartSize: 4
  m_AutoUVMaxDistance: 0.5
  m_AutoUVMaxAngle: 89
  m_LightmapParameters: {fileID: 0}
  m_SortingLayerID: 0
  m_SortingLayer: 0
  m_SortingOrder: 0
  m_Sprite: {fileID: 21300000, guid: 23d89018f27b18d469d38ec57d8eca56, type: 3}
  m_Color: {r: 1, g: 1, b: 1, a: 1}
  m_FlipX: 0
  m_FlipY: 0
  m_DrawMode: 2
  m_Size: {x: 143.62, y: 12.780001}
  m_AdaptiveModeThreshold: 0.5
  m_SpriteTileMode: 0
  m_WasSpriteAssigned: 1
  m_MaskInteraction: 0
  m_SpriteSortPoint: 0
--- !u!1 &395054704
GameObject:
  m_ObjectHideFlags: 0
  m_CorrespondingSourceObject: {fileID: 0}
  m_PrefabInstance: {fileID: 0}
  m_PrefabAsset: {fileID: 0}
  serializedVersion: 6
  m_Component:
  - component: {fileID: 395054706}
  - component: {fileID: 395054705}
  m_Layer: 0
  m_Name: Clouds Day_4 (2)
  m_TagString: Untagged
  m_Icon: {fileID: 0}
  m_NavMeshLayer: 0
  m_StaticEditorFlags: 0
  m_IsActive: 1
--- !u!212 &395054705
SpriteRenderer:
  m_ObjectHideFlags: 0
  m_CorrespondingSourceObject: {fileID: 0}
  m_PrefabInstance: {fileID: 0}
  m_PrefabAsset: {fileID: 0}
  m_GameObject: {fileID: 395054704}
  m_Enabled: 1
  m_CastShadows: 0
  m_ReceiveShadows: 0
  m_DynamicOccludee: 1
  m_MotionVectors: 1
  m_LightProbeUsage: 1
  m_ReflectionProbeUsage: 1
  m_RayTracingMode: 0
  m_RayTraceProcedural: 0
  m_RenderingLayerMask: 1
  m_RendererPriority: 0
  m_Materials:
  - {fileID: 10754, guid: 0000000000000000f000000000000000, type: 0}
  m_StaticBatchInfo:
    firstSubMesh: 0
    subMeshCount: 0
  m_StaticBatchRoot: {fileID: 0}
  m_ProbeAnchor: {fileID: 0}
  m_LightProbeVolumeOverride: {fileID: 0}
  m_ScaleInLightmap: 1
  m_ReceiveGI: 1
  m_PreserveUVs: 0
  m_IgnoreNormalsForChartDetection: 0
  m_ImportantGI: 0
  m_StitchLightmapSeams: 1
  m_SelectedEditorRenderState: 0
  m_MinimumChartSize: 4
  m_AutoUVMaxDistance: 0.5
  m_AutoUVMaxAngle: 89
  m_LightmapParameters: {fileID: 0}
  m_SortingLayerID: 0
  m_SortingLayer: 0
  m_SortingOrder: 0
  m_Sprite: {fileID: 21300000, guid: f2857aefd6c4feb429830bf6b9be3d64, type: 3}
  m_Color: {r: 1, g: 1, b: 1, a: 1}
  m_FlipX: 0
  m_FlipY: 0
  m_DrawMode: 0
  m_Size: {x: 12.35, y: 7.08}
  m_AdaptiveModeThreshold: 0.5
  m_SpriteTileMode: 0
  m_WasSpriteAssigned: 1
  m_MaskInteraction: 0
  m_SpriteSortPoint: 0
--- !u!4 &395054706
Transform:
  m_ObjectHideFlags: 0
  m_CorrespondingSourceObject: {fileID: 0}
  m_PrefabInstance: {fileID: 0}
  m_PrefabAsset: {fileID: 0}
  m_GameObject: {fileID: 395054704}
  m_LocalRotation: {x: -0, y: -0, z: -0, w: 1}
  m_LocalPosition: {x: -40.5, y: 7.49, z: 0}
  m_LocalScale: {x: 1.1725173, y: 1.1725173, z: 1.1725173}
  m_Children: []
  m_Father: {fileID: 1629422318}
  m_RootOrder: 5
  m_LocalEulerAnglesHint: {x: 0, y: 0, z: 0}
--- !u!1001 &437514697
PrefabInstance:
  m_ObjectHideFlags: 0
  serializedVersion: 2
  m_Modification:
    m_TransformParent: {fileID: 1629422318}
    m_Modifications:
    - target: {fileID: 1865683774560366, guid: 42fc513ba3b20c643942adda24484b55, type: 3}
      propertyPath: m_Name
      value: Night Clouds 2 (1)
      objectReference: {fileID: 0}
    - target: {fileID: 4620439350207392, guid: 42fc513ba3b20c643942adda24484b55, type: 3}
      propertyPath: m_RootOrder
      value: 8
      objectReference: {fileID: 0}
    - target: {fileID: 4620439350207392, guid: 42fc513ba3b20c643942adda24484b55, type: 3}
      propertyPath: m_LocalPosition.x
      value: 6.94
      objectReference: {fileID: 0}
    - target: {fileID: 4620439350207392, guid: 42fc513ba3b20c643942adda24484b55, type: 3}
      propertyPath: m_LocalPosition.y
      value: 3.96
      objectReference: {fileID: 0}
    - target: {fileID: 4620439350207392, guid: 42fc513ba3b20c643942adda24484b55, type: 3}
      propertyPath: m_LocalPosition.z
      value: 0
      objectReference: {fileID: 0}
    - target: {fileID: 4620439350207392, guid: 42fc513ba3b20c643942adda24484b55, type: 3}
      propertyPath: m_LocalRotation.w
      value: 1
      objectReference: {fileID: 0}
    - target: {fileID: 4620439350207392, guid: 42fc513ba3b20c643942adda24484b55, type: 3}
      propertyPath: m_LocalRotation.x
      value: -0
      objectReference: {fileID: 0}
    - target: {fileID: 4620439350207392, guid: 42fc513ba3b20c643942adda24484b55, type: 3}
      propertyPath: m_LocalRotation.y
      value: -0
      objectReference: {fileID: 0}
    - target: {fileID: 4620439350207392, guid: 42fc513ba3b20c643942adda24484b55, type: 3}
      propertyPath: m_LocalRotation.z
      value: -0
      objectReference: {fileID: 0}
    - target: {fileID: 212068778746808572, guid: 42fc513ba3b20c643942adda24484b55, type: 3}
      propertyPath: m_Sprite
      value: 
      objectReference: {fileID: 21300000, guid: c50f97e0c6a39be47995644d8182c316, type: 3}
    - target: {fileID: 212149464883951026, guid: 42fc513ba3b20c643942adda24484b55, type: 3}
      propertyPath: m_Sprite
      value: 
      objectReference: {fileID: 21300000, guid: 0c04352bef71fd8439af7e08ecc997ba, type: 3}
    - target: {fileID: 212859462463906018, guid: 42fc513ba3b20c643942adda24484b55, type: 3}
      propertyPath: m_Sprite
      value: 
      objectReference: {fileID: 21300000, guid: f412c872af1fe354da52cdd679ef805e, type: 3}
    m_RemovedComponents: []
  m_SourcePrefab: {fileID: 100100000, guid: 42fc513ba3b20c643942adda24484b55, type: 3}
--- !u!4 &437514698 stripped
Transform:
  m_CorrespondingSourceObject: {fileID: 4620439350207392, guid: 42fc513ba3b20c643942adda24484b55, type: 3}
  m_PrefabInstance: {fileID: 437514697}
  m_PrefabAsset: {fileID: 0}
--- !u!1001 &504827630
PrefabInstance:
  m_ObjectHideFlags: 0
  serializedVersion: 2
  m_Modification:
    m_TransformParent: {fileID: 671342889}
    m_Modifications:
    - target: {fileID: 1272434646262188, guid: 25f52e9077efd7d4c90fe92bac7e6820, type: 3}
      propertyPath: m_Name
      value: Blocks Large 1 (1)
      objectReference: {fileID: 0}
    - target: {fileID: 4118169872903140, guid: 25f52e9077efd7d4c90fe92bac7e6820, type: 3}
      propertyPath: m_RootOrder
      value: 3
      objectReference: {fileID: 0}
    - target: {fileID: 4118169872903140, guid: 25f52e9077efd7d4c90fe92bac7e6820, type: 3}
      propertyPath: m_LocalPosition.x
      value: 65.55
      objectReference: {fileID: 0}
    - target: {fileID: 4118169872903140, guid: 25f52e9077efd7d4c90fe92bac7e6820, type: 3}
      propertyPath: m_LocalPosition.y
      value: -11.36
      objectReference: {fileID: 0}
    - target: {fileID: 4118169872903140, guid: 25f52e9077efd7d4c90fe92bac7e6820, type: 3}
      propertyPath: m_LocalPosition.z
      value: 0.28125
      objectReference: {fileID: 0}
    - target: {fileID: 4118169872903140, guid: 25f52e9077efd7d4c90fe92bac7e6820, type: 3}
      propertyPath: m_LocalRotation.w
      value: 1
      objectReference: {fileID: 0}
    - target: {fileID: 4118169872903140, guid: 25f52e9077efd7d4c90fe92bac7e6820, type: 3}
      propertyPath: m_LocalRotation.x
      value: -0
      objectReference: {fileID: 0}
    - target: {fileID: 4118169872903140, guid: 25f52e9077efd7d4c90fe92bac7e6820, type: 3}
      propertyPath: m_LocalRotation.y
      value: -0
      objectReference: {fileID: 0}
    - target: {fileID: 4118169872903140, guid: 25f52e9077efd7d4c90fe92bac7e6820, type: 3}
      propertyPath: m_LocalRotation.z
      value: -0
      objectReference: {fileID: 0}
    m_RemovedComponents: []
  m_SourcePrefab: {fileID: 100100000, guid: 25f52e9077efd7d4c90fe92bac7e6820, type: 3}
--- !u!4 &504827631 stripped
Transform:
  m_CorrespondingSourceObject: {fileID: 4118169872903140, guid: 25f52e9077efd7d4c90fe92bac7e6820, type: 3}
  m_PrefabInstance: {fileID: 504827630}
  m_PrefabAsset: {fileID: 0}
--- !u!1 &591611968
GameObject:
  m_ObjectHideFlags: 0
  m_CorrespondingSourceObject: {fileID: 0}
  m_PrefabInstance: {fileID: 0}
  m_PrefabAsset: {fileID: 0}
  serializedVersion: 6
  m_Component:
  - component: {fileID: 591611970}
  - component: {fileID: 591611969}
  m_Layer: 0
  m_Name: Clouds Day_4 (1)
  m_TagString: Untagged
  m_Icon: {fileID: 0}
  m_NavMeshLayer: 0
  m_StaticEditorFlags: 0
  m_IsActive: 1
--- !u!212 &591611969
SpriteRenderer:
  m_ObjectHideFlags: 0
  m_CorrespondingSourceObject: {fileID: 0}
  m_PrefabInstance: {fileID: 0}
  m_PrefabAsset: {fileID: 0}
  m_GameObject: {fileID: 591611968}
  m_Enabled: 1
  m_CastShadows: 0
  m_ReceiveShadows: 0
  m_DynamicOccludee: 1
  m_MotionVectors: 1
  m_LightProbeUsage: 1
  m_ReflectionProbeUsage: 1
  m_RayTracingMode: 0
  m_RayTraceProcedural: 0
  m_RenderingLayerMask: 1
  m_RendererPriority: 0
  m_Materials:
  - {fileID: 10754, guid: 0000000000000000f000000000000000, type: 0}
  m_StaticBatchInfo:
    firstSubMesh: 0
    subMeshCount: 0
  m_StaticBatchRoot: {fileID: 0}
  m_ProbeAnchor: {fileID: 0}
  m_LightProbeVolumeOverride: {fileID: 0}
  m_ScaleInLightmap: 1
  m_ReceiveGI: 1
  m_PreserveUVs: 0
  m_IgnoreNormalsForChartDetection: 0
  m_ImportantGI: 0
  m_StitchLightmapSeams: 1
  m_SelectedEditorRenderState: 0
  m_MinimumChartSize: 4
  m_AutoUVMaxDistance: 0.5
  m_AutoUVMaxAngle: 89
  m_LightmapParameters: {fileID: 0}
  m_SortingLayerID: 0
  m_SortingLayer: 0
  m_SortingOrder: 0
  m_Sprite: {fileID: 21300000, guid: f2857aefd6c4feb429830bf6b9be3d64, type: 3}
  m_Color: {r: 1, g: 1, b: 1, a: 1}
  m_FlipX: 0
  m_FlipY: 0
  m_DrawMode: 0
  m_Size: {x: 12.35, y: 7.08}
  m_AdaptiveModeThreshold: 0.5
  m_SpriteTileMode: 0
  m_WasSpriteAssigned: 1
  m_MaskInteraction: 0
  m_SpriteSortPoint: 0
--- !u!4 &591611970
Transform:
  m_ObjectHideFlags: 0
  m_CorrespondingSourceObject: {fileID: 0}
  m_PrefabInstance: {fileID: 0}
  m_PrefabAsset: {fileID: 0}
  m_GameObject: {fileID: 591611968}
  m_LocalRotation: {x: -0, y: -0, z: -0, w: 1}
  m_LocalPosition: {x: -110.8, y: 5.2, z: 0}
  m_LocalScale: {x: 0.86432606, y: 0.86432606, z: 0.86432606}
  m_Children: []
  m_Father: {fileID: 1629422318}
  m_RootOrder: 3
  m_LocalEulerAnglesHint: {x: 0, y: 0, z: 0}
--- !u!1001 &641668420
PrefabInstance:
  m_ObjectHideFlags: 0
  serializedVersion: 2
  m_Modification:
    m_TransformParent: {fileID: 671342889}
    m_Modifications:
    - target: {fileID: 1220916975810834, guid: 259ef83e5245a62418a1e8f725a531eb, type: 3}
      propertyPath: m_Name
      value: Blocks Small 1 (1)
      objectReference: {fileID: 0}
    - target: {fileID: 4095090834823958, guid: 259ef83e5245a62418a1e8f725a531eb, type: 3}
      propertyPath: m_RootOrder
      value: 1
      objectReference: {fileID: 0}
    - target: {fileID: 4095090834823958, guid: 259ef83e5245a62418a1e8f725a531eb, type: 3}
      propertyPath: m_LocalPosition.x
      value: -54.8
      objectReference: {fileID: 0}
    - target: {fileID: 4095090834823958, guid: 259ef83e5245a62418a1e8f725a531eb, type: 3}
      propertyPath: m_LocalPosition.y
      value: -12.9
      objectReference: {fileID: 0}
    - target: {fileID: 4095090834823958, guid: 259ef83e5245a62418a1e8f725a531eb, type: 3}
      propertyPath: m_LocalPosition.z
      value: -0.29
      objectReference: {fileID: 0}
    - target: {fileID: 4095090834823958, guid: 259ef83e5245a62418a1e8f725a531eb, type: 3}
      propertyPath: m_LocalRotation.w
      value: 1
      objectReference: {fileID: 0}
    - target: {fileID: 4095090834823958, guid: 259ef83e5245a62418a1e8f725a531eb, type: 3}
      propertyPath: m_LocalRotation.x
      value: -0
      objectReference: {fileID: 0}
    - target: {fileID: 4095090834823958, guid: 259ef83e5245a62418a1e8f725a531eb, type: 3}
      propertyPath: m_LocalRotation.y
      value: -0
      objectReference: {fileID: 0}
    - target: {fileID: 4095090834823958, guid: 259ef83e5245a62418a1e8f725a531eb, type: 3}
      propertyPath: m_LocalRotation.z
      value: -0
      objectReference: {fileID: 0}
    m_RemovedComponents: []
  m_SourcePrefab: {fileID: 100100000, guid: 259ef83e5245a62418a1e8f725a531eb, type: 3}
--- !u!4 &641668421 stripped
Transform:
  m_CorrespondingSourceObject: {fileID: 4095090834823958, guid: 259ef83e5245a62418a1e8f725a531eb, type: 3}
  m_PrefabInstance: {fileID: 641668420}
  m_PrefabAsset: {fileID: 0}
--- !u!1 &671342888
GameObject:
  m_ObjectHideFlags: 0
  m_CorrespondingSourceObject: {fileID: 0}
  m_PrefabInstance: {fileID: 0}
  m_PrefabAsset: {fileID: 0}
  serializedVersion: 6
  m_Component:
  - component: {fileID: 671342889}
  m_Layer: 0
  m_Name: Blocks
  m_TagString: Untagged
  m_Icon: {fileID: 0}
  m_NavMeshLayer: 0
  m_StaticEditorFlags: 0
  m_IsActive: 1
--- !u!4 &671342889
Transform:
  m_ObjectHideFlags: 0
  m_CorrespondingSourceObject: {fileID: 0}
  m_PrefabInstance: {fileID: 0}
  m_PrefabAsset: {fileID: 0}
  m_GameObject: {fileID: 671342888}
  m_LocalRotation: {x: 0, y: 0, z: 0, w: 1}
  m_LocalPosition: {x: -44.2, y: 0.7, z: 13.3}
  m_LocalScale: {x: 0.32987493, y: 0.32987493, z: 0.32987493}
  m_Children:
  - {fileID: 736099975}
  - {fileID: 641668421}
  - {fileID: 2095721919}
  - {fileID: 504827631}
  - {fileID: 1681734152}
  m_Father: {fileID: 0}
  m_RootOrder: 6
  m_LocalEulerAnglesHint: {x: 0, y: 0, z: 0}
--- !u!1001 &736099974
PrefabInstance:
  m_ObjectHideFlags: 0
  serializedVersion: 2
  m_Modification:
    m_TransformParent: {fileID: 671342889}
    m_Modifications:
    - target: {fileID: 1272434646262188, guid: 25f52e9077efd7d4c90fe92bac7e6820, type: 3}
      propertyPath: m_IsActive
      value: 1
      objectReference: {fileID: 0}
    - target: {fileID: 4118169872903140, guid: 25f52e9077efd7d4c90fe92bac7e6820, type: 3}
      propertyPath: m_RootOrder
      value: 0
      objectReference: {fileID: 0}
    - target: {fileID: 4118169872903140, guid: 25f52e9077efd7d4c90fe92bac7e6820, type: 3}
      propertyPath: m_LocalPosition.x
      value: 16.39
      objectReference: {fileID: 0}
    - target: {fileID: 4118169872903140, guid: 25f52e9077efd7d4c90fe92bac7e6820, type: 3}
      propertyPath: m_LocalPosition.y
      value: -11.31
      objectReference: {fileID: 0}
    - target: {fileID: 4118169872903140, guid: 25f52e9077efd7d4c90fe92bac7e6820, type: 3}
      propertyPath: m_LocalPosition.z
      value: 0.28125
      objectReference: {fileID: 0}
    - target: {fileID: 4118169872903140, guid: 25f52e9077efd7d4c90fe92bac7e6820, type: 3}
      propertyPath: m_LocalRotation.w
      value: 1
      objectReference: {fileID: 0}
    - target: {fileID: 4118169872903140, guid: 25f52e9077efd7d4c90fe92bac7e6820, type: 3}
      propertyPath: m_LocalRotation.x
      value: -0
      objectReference: {fileID: 0}
    - target: {fileID: 4118169872903140, guid: 25f52e9077efd7d4c90fe92bac7e6820, type: 3}
      propertyPath: m_LocalRotation.y
      value: -0
      objectReference: {fileID: 0}
    - target: {fileID: 4118169872903140, guid: 25f52e9077efd7d4c90fe92bac7e6820, type: 3}
      propertyPath: m_LocalRotation.z
      value: -0
      objectReference: {fileID: 0}
    m_RemovedComponents: []
  m_SourcePrefab: {fileID: 100100000, guid: 25f52e9077efd7d4c90fe92bac7e6820, type: 3}
--- !u!4 &736099975 stripped
Transform:
  m_CorrespondingSourceObject: {fileID: 4118169872903140, guid: 25f52e9077efd7d4c90fe92bac7e6820, type: 3}
  m_PrefabInstance: {fileID: 736099974}
  m_PrefabAsset: {fileID: 0}
--- !u!1 &756922328
GameObject:
  m_ObjectHideFlags: 0
  m_CorrespondingSourceObject: {fileID: 0}
  m_PrefabInstance: {fileID: 0}
  m_PrefabAsset: {fileID: 0}
  serializedVersion: 6
  m_Component:
  - component: {fileID: 756922329}
  m_Layer: 0
  m_Name: Platforms
  m_TagString: Untagged
  m_Icon: {fileID: 0}
  m_NavMeshLayer: 0
  m_StaticEditorFlags: 0
  m_IsActive: 1
--- !u!4 &756922329
Transform:
  m_ObjectHideFlags: 0
  m_CorrespondingSourceObject: {fileID: 0}
  m_PrefabInstance: {fileID: 0}
  m_PrefabAsset: {fileID: 0}
  m_GameObject: {fileID: 756922328}
  m_LocalRotation: {x: 0, y: 0, z: 0, w: 1}
  m_LocalPosition: {x: -46.7, y: 1.5, z: 13.3}
  m_LocalScale: {x: 0.32987493, y: 0.32987493, z: 0.32987493}
  m_Children:
  - {fileID: 277430496}
  - {fileID: 1948436414}
  m_Father: {fileID: 0}
  m_RootOrder: 7
  m_LocalEulerAnglesHint: {x: 0, y: 0, z: 0}
--- !u!1 &833291569
GameObject:
  m_ObjectHideFlags: 0
  m_CorrespondingSourceObject: {fileID: 0}
  m_PrefabInstance: {fileID: 0}
  m_PrefabAsset: {fileID: 0}
  serializedVersion: 6
  m_Component:
  - component: {fileID: 833291571}
  - component: {fileID: 833291570}
  m_Layer: 0
  m_Name: Clouds Day_3 (1)
  m_TagString: Untagged
  m_Icon: {fileID: 0}
  m_NavMeshLayer: 0
  m_StaticEditorFlags: 0
  m_IsActive: 1
--- !u!212 &833291570
SpriteRenderer:
  m_ObjectHideFlags: 0
  m_CorrespondingSourceObject: {fileID: 0}
  m_PrefabInstance: {fileID: 0}
  m_PrefabAsset: {fileID: 0}
  m_GameObject: {fileID: 833291569}
  m_Enabled: 1
  m_CastShadows: 0
  m_ReceiveShadows: 0
  m_DynamicOccludee: 1
  m_MotionVectors: 1
  m_LightProbeUsage: 1
  m_ReflectionProbeUsage: 1
  m_RayTracingMode: 0
  m_RayTraceProcedural: 0
  m_RenderingLayerMask: 1
  m_RendererPriority: 0
  m_Materials:
  - {fileID: 10754, guid: 0000000000000000f000000000000000, type: 0}
  m_StaticBatchInfo:
    firstSubMesh: 0
    subMeshCount: 0
  m_StaticBatchRoot: {fileID: 0}
  m_ProbeAnchor: {fileID: 0}
  m_LightProbeVolumeOverride: {fileID: 0}
  m_ScaleInLightmap: 1
  m_ReceiveGI: 1
  m_PreserveUVs: 0
  m_IgnoreNormalsForChartDetection: 0
  m_ImportantGI: 0
  m_StitchLightmapSeams: 1
  m_SelectedEditorRenderState: 0
  m_MinimumChartSize: 4
  m_AutoUVMaxDistance: 0.5
  m_AutoUVMaxAngle: 89
  m_LightmapParameters: {fileID: 0}
  m_SortingLayerID: 0
  m_SortingLayer: 0
  m_SortingOrder: 0
  m_Sprite: {fileID: 21300000, guid: c50f97e0c6a39be47995644d8182c316, type: 3}
  m_Color: {r: 1, g: 1, b: 1, a: 1}
  m_FlipX: 0
  m_FlipY: 0
  m_DrawMode: 0
  m_Size: {x: 12.19, y: 7.08}
  m_AdaptiveModeThreshold: 0.5
  m_SpriteTileMode: 0
  m_WasSpriteAssigned: 1
  m_MaskInteraction: 0
  m_SpriteSortPoint: 0
--- !u!4 &833291571
Transform:
  m_ObjectHideFlags: 0
  m_CorrespondingSourceObject: {fileID: 0}
  m_PrefabInstance: {fileID: 0}
  m_PrefabAsset: {fileID: 0}
  m_GameObject: {fileID: 833291569}
  m_LocalRotation: {x: -0, y: -0, z: -0.092289634, w: 0.99573225}
  m_LocalPosition: {x: -26.42, y: 10.37, z: 0}
  m_LocalScale: {x: 1.0181184, y: 1.0181184, z: 1.0181184}
  m_Children: []
  m_Father: {fileID: 1629422318}
  m_RootOrder: 4
  m_LocalEulerAnglesHint: {x: 0, y: 0, z: -10.591001}
--- !u!1001 &991636078
PrefabInstance:
  m_ObjectHideFlags: 0
  serializedVersion: 2
  m_Modification:
    m_TransformParent: {fileID: 1629422318}
    m_Modifications:
    - target: {fileID: 4607309522671758, guid: c000a789eb3a8984c981ef68d15df9fc, type: 3}
      propertyPath: m_RootOrder
      value: 1
      objectReference: {fileID: 0}
    - target: {fileID: 4607309522671758, guid: c000a789eb3a8984c981ef68d15df9fc, type: 3}
      propertyPath: m_LocalPosition.x
      value: 20.7
      objectReference: {fileID: 0}
    - target: {fileID: 4607309522671758, guid: c000a789eb3a8984c981ef68d15df9fc, type: 3}
      propertyPath: m_LocalPosition.y
      value: 10.6
      objectReference: {fileID: 0}
    - target: {fileID: 4607309522671758, guid: c000a789eb3a8984c981ef68d15df9fc, type: 3}
      propertyPath: m_LocalPosition.z
      value: 0
      objectReference: {fileID: 0}
    - target: {fileID: 4607309522671758, guid: c000a789eb3a8984c981ef68d15df9fc, type: 3}
      propertyPath: m_LocalRotation.w
      value: 1
      objectReference: {fileID: 0}
    - target: {fileID: 4607309522671758, guid: c000a789eb3a8984c981ef68d15df9fc, type: 3}
      propertyPath: m_LocalRotation.x
      value: -0
      objectReference: {fileID: 0}
    - target: {fileID: 4607309522671758, guid: c000a789eb3a8984c981ef68d15df9fc, type: 3}
      propertyPath: m_LocalRotation.y
      value: -0
      objectReference: {fileID: 0}
    - target: {fileID: 4607309522671758, guid: c000a789eb3a8984c981ef68d15df9fc, type: 3}
      propertyPath: m_LocalRotation.z
      value: -0
      objectReference: {fileID: 0}
    - target: {fileID: 212015848213863480, guid: c000a789eb3a8984c981ef68d15df9fc, type: 3}
      propertyPath: m_Sprite
      value: 
      objectReference: {fileID: 21300000, guid: c50f97e0c6a39be47995644d8182c316, type: 3}
    - target: {fileID: 212845067518182088, guid: c000a789eb3a8984c981ef68d15df9fc, type: 3}
      propertyPath: m_Sprite
      value: 
      objectReference: {fileID: 21300000, guid: 3c1189ca40290404e9ed69b85c29f1fa, type: 3}
    m_RemovedComponents: []
  m_SourcePrefab: {fileID: 100100000, guid: c000a789eb3a8984c981ef68d15df9fc, type: 3}
--- !u!1 &1089428272
GameObject:
  m_ObjectHideFlags: 0
  m_CorrespondingSourceObject: {fileID: 0}
  m_PrefabInstance: {fileID: 0}
  m_PrefabAsset: {fileID: 0}
  serializedVersion: 6
  m_Component:
  - component: {fileID: 1089428273}
  m_Layer: 0
  m_Name: Sky
  m_TagString: Untagged
  m_Icon: {fileID: 0}
  m_NavMeshLayer: 0
  m_StaticEditorFlags: 0
  m_IsActive: 1
--- !u!4 &1089428273
Transform:
  m_ObjectHideFlags: 0
  m_CorrespondingSourceObject: {fileID: 0}
  m_PrefabInstance: {fileID: 0}
  m_PrefabAsset: {fileID: 0}
  m_GameObject: {fileID: 1089428272}
  m_LocalRotation: {x: 0, y: 0, z: 0, w: 1}
  m_LocalPosition: {x: -25.61, y: 5.1, z: 23.1}
  m_LocalScale: {x: 0.32987493, y: 0.32987493, z: 0.32987493}
  m_Children:
  - {fileID: 1658487476}
  - {fileID: 2018672751}
  m_Father: {fileID: 0}
  m_RootOrder: 1
  m_LocalEulerAnglesHint: {x: 0, y: 0, z: 0}
--- !u!1001 &1095438315
PrefabInstance:
  m_ObjectHideFlags: 0
  serializedVersion: 2
  m_Modification:
    m_TransformParent: {fileID: 1629422318}
    m_Modifications:
    - target: {fileID: 1553707606832020, guid: 0fbb51571faea254982bd99c2a7ad463, type: 3}
      propertyPath: m_Name
      value: NIght Clouds 1
      objectReference: {fileID: 0}
    - target: {fileID: 4953079935904030, guid: 0fbb51571faea254982bd99c2a7ad463, type: 3}
      propertyPath: m_RootOrder
      value: 0
      objectReference: {fileID: 0}
    - target: {fileID: 4953079935904030, guid: 0fbb51571faea254982bd99c2a7ad463, type: 3}
      propertyPath: m_LocalPosition.x
      value: -28.47
      objectReference: {fileID: 0}
    - target: {fileID: 4953079935904030, guid: 0fbb51571faea254982bd99c2a7ad463, type: 3}
      propertyPath: m_LocalPosition.y
      value: 8.12
      objectReference: {fileID: 0}
    - target: {fileID: 4953079935904030, guid: 0fbb51571faea254982bd99c2a7ad463, type: 3}
      propertyPath: m_LocalPosition.z
      value: 0
      objectReference: {fileID: 0}
    - target: {fileID: 4953079935904030, guid: 0fbb51571faea254982bd99c2a7ad463, type: 3}
      propertyPath: m_LocalRotation.w
      value: 1
      objectReference: {fileID: 0}
    - target: {fileID: 4953079935904030, guid: 0fbb51571faea254982bd99c2a7ad463, type: 3}
      propertyPath: m_LocalRotation.x
      value: -0
      objectReference: {fileID: 0}
    - target: {fileID: 4953079935904030, guid: 0fbb51571faea254982bd99c2a7ad463, type: 3}
      propertyPath: m_LocalRotation.y
      value: -0
      objectReference: {fileID: 0}
    - target: {fileID: 4953079935904030, guid: 0fbb51571faea254982bd99c2a7ad463, type: 3}
      propertyPath: m_LocalRotation.z
      value: -0
      objectReference: {fileID: 0}
    - target: {fileID: 212321020133769686, guid: 0fbb51571faea254982bd99c2a7ad463, type: 3}
      propertyPath: m_Sprite
      value: 
      objectReference: {fileID: 21300000, guid: f412c872af1fe354da52cdd679ef805e, type: 3}
    - target: {fileID: 212508906805979140, guid: 0fbb51571faea254982bd99c2a7ad463, type: 3}
      propertyPath: m_Sprite
      value: 
      objectReference: {fileID: 21300000, guid: 3c1189ca40290404e9ed69b85c29f1fa, type: 3}
    m_RemovedComponents: []
  m_SourcePrefab: {fileID: 100100000, guid: 0fbb51571faea254982bd99c2a7ad463, type: 3}
--- !u!1 &1154897980
GameObject:
  m_ObjectHideFlags: 0
  m_CorrespondingSourceObject: {fileID: 0}
  m_PrefabInstance: {fileID: 0}
  m_PrefabAsset: {fileID: 0}
  serializedVersion: 6
  m_Component:
  - component: {fileID: 1154897982}
  - component: {fileID: 1154897981}
  m_Layer: 0
  m_Name: Water Large (2)
  m_TagString: Untagged
  m_Icon: {fileID: 0}
  m_NavMeshLayer: 0
  m_StaticEditorFlags: 0
  m_IsActive: 1
--- !u!212 &1154897981
SpriteRenderer:
  m_ObjectHideFlags: 0
  m_CorrespondingSourceObject: {fileID: 0}
  m_PrefabInstance: {fileID: 0}
  m_PrefabAsset: {fileID: 0}
  m_GameObject: {fileID: 1154897980}
  m_Enabled: 1
  m_CastShadows: 0
  m_ReceiveShadows: 0
  m_DynamicOccludee: 1
  m_MotionVectors: 1
  m_LightProbeUsage: 1
  m_ReflectionProbeUsage: 1
  m_RayTracingMode: 0
  m_RayTraceProcedural: 0
  m_RenderingLayerMask: 1
  m_RendererPriority: 0
  m_Materials:
  - {fileID: 10754, guid: 0000000000000000f000000000000000, type: 0}
  m_StaticBatchInfo:
    firstSubMesh: 0
    subMeshCount: 0
  m_StaticBatchRoot: {fileID: 0}
  m_ProbeAnchor: {fileID: 0}
  m_LightProbeVolumeOverride: {fileID: 0}
  m_ScaleInLightmap: 1
  m_ReceiveGI: 1
  m_PreserveUVs: 0
  m_IgnoreNormalsForChartDetection: 0
  m_ImportantGI: 0
  m_StitchLightmapSeams: 1
  m_SelectedEditorRenderState: 0
  m_MinimumChartSize: 4
  m_AutoUVMaxDistance: 0.5
  m_AutoUVMaxAngle: 89
  m_LightmapParameters: {fileID: 0}
  m_SortingLayerID: 0
  m_SortingLayer: 0
  m_SortingOrder: 0
  m_Sprite: {fileID: 21300000, guid: 23d89018f27b18d469d38ec57d8eca56, type: 3}
  m_Color: {r: 1, g: 1, b: 1, a: 1}
  m_FlipX: 0
  m_FlipY: 0
  m_DrawMode: 2
  m_Size: {x: 143.62, y: 12.780001}
  m_AdaptiveModeThreshold: 0.5
  m_SpriteTileMode: 0
  m_WasSpriteAssigned: 1
  m_MaskInteraction: 0
  m_SpriteSortPoint: 0
--- !u!4 &1154897982
Transform:
  m_ObjectHideFlags: 0
  m_CorrespondingSourceObject: {fileID: 0}
  m_PrefabInstance: {fileID: 0}
  m_PrefabAsset: {fileID: 0}
  m_GameObject: {fileID: 1154897980}
  m_LocalRotation: {x: -0, y: -0, z: -0, w: 1}
  m_LocalPosition: {x: -67.114, y: -3.1277885, z: -43.399998}
  m_LocalScale: {x: 1, y: 1, z: 1}
  m_Children: []
  m_Father: {fileID: 1773823115}
  m_RootOrder: 1
  m_LocalEulerAnglesHint: {x: 0, y: 0, z: 0}
--- !u!4 &1277281997 stripped
Transform:
  m_CorrespondingSourceObject: {fileID: 4620439350207392, guid: 42fc513ba3b20c643942adda24484b55, type: 3}
  m_PrefabInstance: {fileID: 217479215}
  m_PrefabAsset: {fileID: 0}
--- !u!4 &1320087557 stripped
Transform:
  m_CorrespondingSourceObject: {fileID: 4953079935904030, guid: 0fbb51571faea254982bd99c2a7ad463, type: 3}
  m_PrefabInstance: {fileID: 1095438315}
  m_PrefabAsset: {fileID: 0}
--- !u!1 &1372960885
GameObject:
  m_ObjectHideFlags: 0
  m_CorrespondingSourceObject: {fileID: 1902902407159434, guid: 55ff042751668034a9cfe4c0dce490c7, type: 2}
  m_PrefabInstance: {fileID: 0}
  m_PrefabAsset: {fileID: 0}
  serializedVersion: 6
  m_Component:
  - component: {fileID: 1661527041}
  m_Layer: 0
  m_Name: Forest
  m_TagString: Untagged
  m_Icon: {fileID: 0}
  m_NavMeshLayer: 0
  m_StaticEditorFlags: 0
  m_IsActive: 1
--- !u!1 &1493653528
GameObject:
  m_ObjectHideFlags: 0
  m_CorrespondingSourceObject: {fileID: 0}
  m_PrefabInstance: {fileID: 0}
  m_PrefabAsset: {fileID: 0}
  serializedVersion: 6
  m_Component:
  - component: {fileID: 1493653530}
  - component: {fileID: 1493653529}
  m_Layer: 0
  m_Name: Clouds Day_2 (1)
  m_TagString: Untagged
  m_Icon: {fileID: 0}
  m_NavMeshLayer: 0
  m_StaticEditorFlags: 0
  m_IsActive: 1
--- !u!212 &1493653529
SpriteRenderer:
  m_ObjectHideFlags: 0
  m_CorrespondingSourceObject: {fileID: 0}
  m_PrefabInstance: {fileID: 0}
  m_PrefabAsset: {fileID: 0}
  m_GameObject: {fileID: 1493653528}
  m_Enabled: 1
  m_CastShadows: 0
  m_ReceiveShadows: 0
  m_DynamicOccludee: 1
  m_MotionVectors: 1
  m_LightProbeUsage: 1
  m_ReflectionProbeUsage: 1
  m_RayTracingMode: 0
  m_RayTraceProcedural: 0
  m_RenderingLayerMask: 1
  m_RendererPriority: 0
  m_Materials:
  - {fileID: 10754, guid: 0000000000000000f000000000000000, type: 0}
  m_StaticBatchInfo:
    firstSubMesh: 0
    subMeshCount: 0
  m_StaticBatchRoot: {fileID: 0}
  m_ProbeAnchor: {fileID: 0}
  m_LightProbeVolumeOverride: {fileID: 0}
  m_ScaleInLightmap: 1
  m_ReceiveGI: 1
  m_PreserveUVs: 0
  m_IgnoreNormalsForChartDetection: 0
  m_ImportantGI: 0
  m_StitchLightmapSeams: 1
  m_SelectedEditorRenderState: 0
  m_MinimumChartSize: 4
  m_AutoUVMaxDistance: 0.5
  m_AutoUVMaxAngle: 89
  m_LightmapParameters: {fileID: 0}
  m_SortingLayerID: 0
  m_SortingLayer: 0
  m_SortingOrder: 0
  m_Sprite: {fileID: 21300000, guid: 0c04352bef71fd8439af7e08ecc997ba, type: 3}
  m_Color: {r: 1, g: 1, b: 1, a: 1}
  m_FlipX: 0
  m_FlipY: 0
  m_DrawMode: 0
  m_Size: {x: 9.55, y: 5.44}
  m_AdaptiveModeThreshold: 0.5
  m_SpriteTileMode: 0
  m_WasSpriteAssigned: 1
  m_MaskInteraction: 0
  m_SpriteSortPoint: 0
--- !u!4 &1493653530
Transform:
  m_ObjectHideFlags: 0
  m_CorrespondingSourceObject: {fileID: 0}
  m_PrefabInstance: {fileID: 0}
  m_PrefabAsset: {fileID: 0}
  m_GameObject: {fileID: 1493653528}
  m_LocalRotation: {x: -0, y: -0, z: -0, w: 1}
  m_LocalPosition: {x: -5.3, y: 4.1, z: 0}
  m_LocalScale: {x: 0.86432606, y: 0.86432606, z: 0.86432606}
  m_Children: []
  m_Father: {fileID: 1629422318}
  m_RootOrder: 6
  m_LocalEulerAnglesHint: {x: 0, y: 0, z: 0}
--- !u!1 &1566724387
GameObject:
  m_ObjectHideFlags: 0
  m_CorrespondingSourceObject: {fileID: 0}
  m_PrefabInstance: {fileID: 0}
  m_PrefabAsset: {fileID: 0}
  serializedVersion: 6
  m_Component:
  - component: {fileID: 1566724389}
  - component: {fileID: 1566724388}
  m_Layer: 0
  m_Name: Water Large (3)
  m_TagString: Untagged
  m_Icon: {fileID: 0}
  m_NavMeshLayer: 0
  m_StaticEditorFlags: 0
  m_IsActive: 1
--- !u!212 &1566724388
SpriteRenderer:
  m_ObjectHideFlags: 0
  m_CorrespondingSourceObject: {fileID: 0}
  m_PrefabInstance: {fileID: 0}
  m_PrefabAsset: {fileID: 0}
  m_GameObject: {fileID: 1566724387}
  m_Enabled: 1
  m_CastShadows: 0
  m_ReceiveShadows: 0
  m_DynamicOccludee: 1
  m_MotionVectors: 1
  m_LightProbeUsage: 1
  m_ReflectionProbeUsage: 1
  m_RayTracingMode: 0
  m_RayTraceProcedural: 0
  m_RenderingLayerMask: 1
  m_RendererPriority: 0
  m_Materials:
  - {fileID: 10754, guid: 0000000000000000f000000000000000, type: 0}
  m_StaticBatchInfo:
    firstSubMesh: 0
    subMeshCount: 0
  m_StaticBatchRoot: {fileID: 0}
  m_ProbeAnchor: {fileID: 0}
  m_LightProbeVolumeOverride: {fileID: 0}
  m_ScaleInLightmap: 1
  m_ReceiveGI: 1
  m_PreserveUVs: 0
  m_IgnoreNormalsForChartDetection: 0
  m_ImportantGI: 0
  m_StitchLightmapSeams: 1
  m_SelectedEditorRenderState: 0
  m_MinimumChartSize: 4
  m_AutoUVMaxDistance: 0.5
  m_AutoUVMaxAngle: 89
  m_LightmapParameters: {fileID: 0}
  m_SortingLayerID: 0
  m_SortingLayer: 0
  m_SortingOrder: 0
  m_Sprite: {fileID: 21300000, guid: 23d89018f27b18d469d38ec57d8eca56, type: 3}
  m_Color: {r: 1, g: 1, b: 1, a: 1}
  m_FlipX: 0
  m_FlipY: 0
  m_DrawMode: 2
  m_Size: {x: 143.62, y: 12.780001}
  m_AdaptiveModeThreshold: 0.5
  m_SpriteTileMode: 0
  m_WasSpriteAssigned: 1
  m_MaskInteraction: 0
  m_SpriteSortPoint: 0
--- !u!4 &1566724389
Transform:
  m_ObjectHideFlags: 0
  m_CorrespondingSourceObject: {fileID: 0}
  m_PrefabInstance: {fileID: 0}
  m_PrefabAsset: {fileID: 0}
  m_GameObject: {fileID: 1566724387}
  m_LocalRotation: {x: -0, y: -0, z: -0, w: 1}
  m_LocalPosition: {x: 32.686005, y: -3.1277885, z: -43.399998}
  m_LocalScale: {x: 1, y: 1, z: 1}
  m_Children: []
  m_Father: {fileID: 1773823115}
  m_RootOrder: 2
  m_LocalEulerAnglesHint: {x: 0, y: 0, z: 0}
--- !u!1 &1629422317
GameObject:
  m_ObjectHideFlags: 0
  m_CorrespondingSourceObject: {fileID: 0}
  m_PrefabInstance: {fileID: 0}
  m_PrefabAsset: {fileID: 0}
  serializedVersion: 6
  m_Component:
  - component: {fileID: 1629422318}
  m_Layer: 0
  m_Name: Clouds
  m_TagString: Untagged
  m_Icon: {fileID: 0}
  m_NavMeshLayer: 0
  m_StaticEditorFlags: 0
  m_IsActive: 1
--- !u!4 &1629422318
Transform:
  m_ObjectHideFlags: 0
  m_CorrespondingSourceObject: {fileID: 0}
  m_PrefabInstance: {fileID: 0}
  m_PrefabAsset: {fileID: 0}
  m_GameObject: {fileID: 1629422317}
  m_LocalRotation: {x: 0, y: 0, z: 0, w: 1}
  m_LocalPosition: {x: -25.8, y: 4.9, z: 14.1}
  m_LocalScale: {x: 0.32987493, y: 0.32987493, z: 0.32987493}
  m_Children:
  - {fileID: 1320087557}
  - {fileID: 92969794}
  - {fileID: 1277281997}
  - {fileID: 591611970}
  - {fileID: 833291571}
  - {fileID: 395054706}
  - {fileID: 1493653530}
  - {fileID: 137549723}
  - {fileID: 437514698}
  - {fileID: 74850424}
  - {fileID: 27336860}
  m_Father: {fileID: 0}
  m_RootOrder: 4
  m_LocalEulerAnglesHint: {x: 0, y: 0, z: 0}
--- !u!1 &1658487474
GameObject:
  m_ObjectHideFlags: 0
  m_CorrespondingSourceObject: {fileID: 0}
  m_PrefabInstance: {fileID: 0}
  m_PrefabAsset: {fileID: 0}
  serializedVersion: 6
  m_Component:
  - component: {fileID: 1658487476}
  - component: {fileID: 1658487475}
  m_Layer: 0
  m_Name: NIght sky
  m_TagString: Untagged
  m_Icon: {fileID: 0}
  m_NavMeshLayer: 0
  m_StaticEditorFlags: 0
  m_IsActive: 1
--- !u!212 &1658487475
SpriteRenderer:
  m_ObjectHideFlags: 0
  m_CorrespondingSourceObject: {fileID: 0}
  m_PrefabInstance: {fileID: 0}
  m_PrefabAsset: {fileID: 0}
  m_GameObject: {fileID: 1658487474}
  m_Enabled: 1
  m_CastShadows: 0
  m_ReceiveShadows: 0
  m_DynamicOccludee: 1
  m_MotionVectors: 1
  m_LightProbeUsage: 1
  m_ReflectionProbeUsage: 1
  m_RayTracingMode: 0
  m_RayTraceProcedural: 0
  m_RenderingLayerMask: 1
  m_RendererPriority: 0
  m_Materials:
  - {fileID: 10754, guid: 0000000000000000f000000000000000, type: 0}
  m_StaticBatchInfo:
    firstSubMesh: 0
    subMeshCount: 0
  m_StaticBatchRoot: {fileID: 0}
  m_ProbeAnchor: {fileID: 0}
  m_LightProbeVolumeOverride: {fileID: 0}
  m_ScaleInLightmap: 1
  m_ReceiveGI: 1
  m_PreserveUVs: 0
  m_IgnoreNormalsForChartDetection: 0
  m_ImportantGI: 0
  m_StitchLightmapSeams: 1
  m_SelectedEditorRenderState: 0
  m_MinimumChartSize: 4
  m_AutoUVMaxDistance: 0.5
  m_AutoUVMaxAngle: 89
  m_LightmapParameters: {fileID: 0}
  m_SortingLayerID: 0
  m_SortingLayer: 0
  m_SortingOrder: 0
  m_Sprite: {fileID: 21300000, guid: cebd3f92ef898c74dba7f3064eacfded, type: 3}
  m_Color: {r: 1, g: 1, b: 1, a: 1}
  m_FlipX: 0
  m_FlipY: 0
  m_DrawMode: 0
  m_Size: {x: 98.170006, y: 64.82}
  m_AdaptiveModeThreshold: 0.5
  m_SpriteTileMode: 0
  m_WasSpriteAssigned: 1
  m_MaskInteraction: 0
  m_SpriteSortPoint: 0
--- !u!4 &1658487476
Transform:
  m_ObjectHideFlags: 0
  m_CorrespondingSourceObject: {fileID: 0}
  m_PrefabInstance: {fileID: 0}
  m_PrefabAsset: {fileID: 0}
  m_GameObject: {fileID: 1658487474}
  m_LocalRotation: {x: -0, y: -0, z: -0, w: 1}
  m_LocalPosition: {x: 18.4, y: -6.856867, z: 36.45}
  m_LocalScale: {x: 1, y: 1, z: 1}
  m_Children: []
  m_Father: {fileID: 1089428273}
  m_RootOrder: 0
  m_LocalEulerAnglesHint: {x: 0, y: 0, z: 0}
--- !u!4 &1661527041
Transform:
  m_ObjectHideFlags: 0
  m_CorrespondingSourceObject: {fileID: 4798624491840834, guid: 55ff042751668034a9cfe4c0dce490c7, type: 2}
  m_PrefabInstance: {fileID: 0}
  m_PrefabAsset: {fileID: 0}
  m_GameObject: {fileID: 1372960885}
  m_LocalRotation: {x: 0, y: 0, z: 0, w: 1}
  m_LocalPosition: {x: -20.5, y: 4.69, z: 14.1}
  m_LocalScale: {x: 0.32987493, y: 0.32987493, z: 0.32987493}
  m_Children:
  - {fileID: 1785997675}
  - {fileID: 351736261}
  - {fileID: 81894510}
  m_Father: {fileID: 0}
  m_RootOrder: 5
  m_LocalEulerAnglesHint: {x: 0, y: 0, z: 0}
--- !u!1001 &1681734151
PrefabInstance:
  m_ObjectHideFlags: 0
  serializedVersion: 2
  m_Modification:
    m_TransformParent: {fileID: 671342889}
    m_Modifications:
    - target: {fileID: 1272434646262188, guid: 25f52e9077efd7d4c90fe92bac7e6820, type: 3}
      propertyPath: m_Name
      value: Blocks Large 1 (2)
      objectReference: {fileID: 0}
    - target: {fileID: 4118169872903140, guid: 25f52e9077efd7d4c90fe92bac7e6820, type: 3}
      propertyPath: m_RootOrder
      value: 4
      objectReference: {fileID: 0}
    - target: {fileID: 4118169872903140, guid: 25f52e9077efd7d4c90fe92bac7e6820, type: 3}
      propertyPath: m_LocalPosition.x
      value: 111.79
      objectReference: {fileID: 0}
    - target: {fileID: 4118169872903140, guid: 25f52e9077efd7d4c90fe92bac7e6820, type: 3}
      propertyPath: m_LocalPosition.y
      value: -11.38
      objectReference: {fileID: 0}
    - target: {fileID: 4118169872903140, guid: 25f52e9077efd7d4c90fe92bac7e6820, type: 3}
      propertyPath: m_LocalPosition.z
      value: 0.28125
      objectReference: {fileID: 0}
    - target: {fileID: 4118169872903140, guid: 25f52e9077efd7d4c90fe92bac7e6820, type: 3}
      propertyPath: m_LocalRotation.w
      value: 1
      objectReference: {fileID: 0}
    - target: {fileID: 4118169872903140, guid: 25f52e9077efd7d4c90fe92bac7e6820, type: 3}
      propertyPath: m_LocalRotation.x
      value: -0
      objectReference: {fileID: 0}
    - target: {fileID: 4118169872903140, guid: 25f52e9077efd7d4c90fe92bac7e6820, type: 3}
      propertyPath: m_LocalRotation.y
      value: -0
      objectReference: {fileID: 0}
    - target: {fileID: 4118169872903140, guid: 25f52e9077efd7d4c90fe92bac7e6820, type: 3}
      propertyPath: m_LocalRotation.z
      value: -0
      objectReference: {fileID: 0}
    m_RemovedComponents: []
  m_SourcePrefab: {fileID: 100100000, guid: 25f52e9077efd7d4c90fe92bac7e6820, type: 3}
--- !u!4 &1681734152 stripped
Transform:
  m_CorrespondingSourceObject: {fileID: 4118169872903140, guid: 25f52e9077efd7d4c90fe92bac7e6820, type: 3}
  m_PrefabInstance: {fileID: 1681734151}
  m_PrefabAsset: {fileID: 0}
--- !u!1 &1766946718
GameObject:
  m_ObjectHideFlags: 0
  m_CorrespondingSourceObject: {fileID: 0}
  m_PrefabInstance: {fileID: 0}
  m_PrefabAsset: {fileID: 0}
  serializedVersion: 6
  m_Component:
  - component: {fileID: 1766946723}
  - component: {fileID: 1766946722}
  - component: {fileID: 1766946720}
  - component: {fileID: 1766946719}
  m_Layer: 0
  m_Name: Main Camera
  m_TagString: MainCamera
  m_Icon: {fileID: 0}
  m_NavMeshLayer: 0
  m_StaticEditorFlags: 0
  m_IsActive: 1
--- !u!81 &1766946719
AudioListener:
  m_ObjectHideFlags: 0
  m_CorrespondingSourceObject: {fileID: 0}
  m_PrefabInstance: {fileID: 0}
  m_PrefabAsset: {fileID: 0}
  m_GameObject: {fileID: 1766946718}
  m_Enabled: 1
--- !u!124 &1766946720
Behaviour:
  m_ObjectHideFlags: 0
  m_CorrespondingSourceObject: {fileID: 0}
  m_PrefabInstance: {fileID: 0}
  m_PrefabAsset: {fileID: 0}
  m_GameObject: {fileID: 1766946718}
  m_Enabled: 1
--- !u!20 &1766946722
Camera:
  m_ObjectHideFlags: 0
  m_CorrespondingSourceObject: {fileID: 0}
  m_PrefabInstance: {fileID: 0}
  m_PrefabAsset: {fileID: 0}
  m_GameObject: {fileID: 1766946718}
  m_Enabled: 1
  serializedVersion: 2
  m_ClearFlags: 1
  m_BackGroundColor: {r: 0.19215687, g: 0.3019608, b: 0.4745098, a: 0}
  m_projectionMatrixMode: 1
  m_GateFitMode: 2
  m_FOVAxisMode: 0
  m_SensorSize: {x: 36, y: 24}
  m_LensShift: {x: 0, y: 0}
  m_FocalLength: 50
  m_NormalizedViewPortRect:
    serializedVersion: 2
    x: 0
    y: 0
    width: 1
    height: 1
  near clip plane: 0.3
  far clip plane: 1000
  field of view: 60
  orthographic: 1
  orthographic size: 10
  m_Depth: -1
  m_CullingMask:
    serializedVersion: 2
    m_Bits: 4294967295
  m_RenderingPath: -1
  m_TargetTexture: {fileID: 0}
  m_TargetDisplay: 0
  m_TargetEye: 3
  m_HDR: 1
  m_AllowMSAA: 1
  m_AllowDynamicResolution: 0
  m_ForceIntoRT: 0
  m_OcclusionCulling: 1
  m_StereoConvergence: 10
  m_StereoSeparation: 0.022
--- !u!4 &1766946723
Transform:
  m_ObjectHideFlags: 0
  m_CorrespondingSourceObject: {fileID: 0}
  m_PrefabInstance: {fileID: 0}
  m_PrefabAsset: {fileID: 0}
  m_GameObject: {fileID: 1766946718}
  m_LocalRotation: {x: 0, y: 0, z: 0, w: 1}
  m_LocalPosition: {x: -33.7, y: 2.8, z: -10}
  m_LocalScale: {x: 1, y: 1, z: 1}
  m_Children: []
  m_Father: {fileID: 0}
  m_RootOrder: 0
  m_LocalEulerAnglesHint: {x: 0, y: 0, z: 0}
--- !u!1 &1773823114
GameObject:
  m_ObjectHideFlags: 0
  m_CorrespondingSourceObject: {fileID: 0}
  m_PrefabInstance: {fileID: 0}
  m_PrefabAsset: {fileID: 0}
  serializedVersion: 6
  m_Component:
  - component: {fileID: 1773823115}
  m_Layer: 0
  m_Name: Water
  m_TagString: Untagged
  m_Icon: {fileID: 0}
  m_NavMeshLayer: 0
  m_StaticEditorFlags: 0
  m_IsActive: 1
--- !u!4 &1773823115
Transform:
  m_ObjectHideFlags: 0
  m_CorrespondingSourceObject: {fileID: 0}
  m_PrefabInstance: {fileID: 0}
  m_PrefabAsset: {fileID: 0}
  m_GameObject: {fileID: 1773823114}
  m_LocalRotation: {x: 0, y: 0, z: 0, w: 1}
  m_LocalPosition: {x: -26.9, y: -3, z: 29}
  m_LocalScale: {x: 0.32987493, y: 0.32987493, z: 0.32987493}
  m_Children:
  - {fileID: 162108505}
  - {fileID: 1154897982}
  - {fileID: 1566724389}
  - {fileID: 373900271}
  m_Father: {fileID: 0}
  m_RootOrder: 3
  m_LocalEulerAnglesHint: {x: 0, y: 0, z: 0}
--- !u!1001 &1785997674
PrefabInstance:
  m_ObjectHideFlags: 0
  serializedVersion: 2
  m_Modification:
    m_TransformParent: {fileID: 1661527041}
    m_Modifications:
    - target: {fileID: 4860918936936792, guid: 024606f896ece7c4290812c295930980, type: 3}
      propertyPath: m_RootOrder
      value: 0
      objectReference: {fileID: 0}
    - target: {fileID: 4860918936936792, guid: 024606f896ece7c4290812c295930980, type: 3}
      propertyPath: m_LocalPosition.x
      value: 4.4139004
      objectReference: {fileID: 0}
    - target: {fileID: 4860918936936792, guid: 024606f896ece7c4290812c295930980, type: 3}
      propertyPath: m_LocalPosition.y
      value: -17.77751
      objectReference: {fileID: 0}
    - target: {fileID: 4860918936936792, guid: 024606f896ece7c4290812c295930980, type: 3}
      propertyPath: m_LocalPosition.z
      value: 0
      objectReference: {fileID: 0}
    - target: {fileID: 4860918936936792, guid: 024606f896ece7c4290812c295930980, type: 3}
      propertyPath: m_LocalRotation.w
      value: 1
      objectReference: {fileID: 0}
    - target: {fileID: 4860918936936792, guid: 024606f896ece7c4290812c295930980, type: 3}
      propertyPath: m_LocalRotation.x
      value: -0
      objectReference: {fileID: 0}
    - target: {fileID: 4860918936936792, guid: 024606f896ece7c4290812c295930980, type: 3}
      propertyPath: m_LocalRotation.y
      value: -0
      objectReference: {fileID: 0}
    - target: {fileID: 4860918936936792, guid: 024606f896ece7c4290812c295930980, type: 3}
      propertyPath: m_LocalRotation.z
      value: -0
      objectReference: {fileID: 0}
    m_RemovedComponents: []
  m_SourcePrefab: {fileID: 100100000, guid: 024606f896ece7c4290812c295930980, type: 3}
--- !u!4 &1785997675 stripped
Transform:
  m_CorrespondingSourceObject: {fileID: 4860918936936792, guid: 024606f896ece7c4290812c295930980, type: 3}
  m_PrefabInstance: {fileID: 1785997674}
  m_PrefabAsset: {fileID: 0}
--- !u!1001 &1948436413
PrefabInstance:
  m_ObjectHideFlags: 0
  serializedVersion: 2
  m_Modification:
    m_TransformParent: {fileID: 756922329}
    m_Modifications:
    - target: {fileID: 1494714945945668, guid: de2821ab3e02d8d4581afd94a652243e, type: 3}
      propertyPath: m_Name
      value: PLatform 2 (1)
      objectReference: {fileID: 0}
    - target: {fileID: 1494714945945668, guid: de2821ab3e02d8d4581afd94a652243e, type: 3}
      propertyPath: m_IsActive
      value: 1
      objectReference: {fileID: 0}
    - target: {fileID: 4839646858365274, guid: de2821ab3e02d8d4581afd94a652243e, type: 3}
      propertyPath: m_RootOrder
      value: 1
      objectReference: {fileID: 0}
    - target: {fileID: 4839646858365274, guid: de2821ab3e02d8d4581afd94a652243e, type: 3}
      propertyPath: m_LocalPosition.x
      value: 6.31
      objectReference: {fileID: 0}
    - target: {fileID: 4839646858365274, guid: de2821ab3e02d8d4581afd94a652243e, type: 3}
      propertyPath: m_LocalPosition.y
      value: -7.05
      objectReference: {fileID: 0}
    - target: {fileID: 4839646858365274, guid: de2821ab3e02d8d4581afd94a652243e, type: 3}
      propertyPath: m_LocalPosition.z
      value: -0.34
      objectReference: {fileID: 0}
    - target: {fileID: 4839646858365274, guid: de2821ab3e02d8d4581afd94a652243e, type: 3}
      propertyPath: m_LocalRotation.w
      value: 1
      objectReference: {fileID: 0}
    - target: {fileID: 4839646858365274, guid: de2821ab3e02d8d4581afd94a652243e, type: 3}
      propertyPath: m_LocalRotation.x
      value: 0
      objectReference: {fileID: 0}
    - target: {fileID: 4839646858365274, guid: de2821ab3e02d8d4581afd94a652243e, type: 3}
      propertyPath: m_LocalRotation.y
      value: 0
      objectReference: {fileID: 0}
    - target: {fileID: 4839646858365274, guid: de2821ab3e02d8d4581afd94a652243e, type: 3}
      propertyPath: m_LocalRotation.z
      value: 0
      objectReference: {fileID: 0}
    m_RemovedComponents: []
  m_SourcePrefab: {fileID: 100100000, guid: de2821ab3e02d8d4581afd94a652243e, type: 3}
--- !u!4 &1948436414 stripped
Transform:
  m_CorrespondingSourceObject: {fileID: 4839646858365274, guid: de2821ab3e02d8d4581afd94a652243e, type: 3}
  m_PrefabInstance: {fileID: 1948436413}
  m_PrefabAsset: {fileID: 0}
--- !u!1 &2018672749
GameObject:
  m_ObjectHideFlags: 0
  m_CorrespondingSourceObject: {fileID: 0}
  m_PrefabInstance: {fileID: 0}
  m_PrefabAsset: {fileID: 0}
  serializedVersion: 6
  m_Component:
  - component: {fileID: 2018672751}
  - component: {fileID: 2018672750}
  m_Layer: 0
  m_Name: NIght sky (1)
  m_TagString: Untagged
  m_Icon: {fileID: 0}
  m_NavMeshLayer: 0
  m_StaticEditorFlags: 0
  m_IsActive: 1
--- !u!212 &2018672750
SpriteRenderer:
  m_ObjectHideFlags: 0
  m_CorrespondingSourceObject: {fileID: 0}
  m_PrefabInstance: {fileID: 0}
  m_PrefabAsset: {fileID: 0}
  m_GameObject: {fileID: 2018672749}
  m_Enabled: 1
  m_CastShadows: 0
  m_ReceiveShadows: 0
  m_DynamicOccludee: 1
  m_MotionVectors: 1
  m_LightProbeUsage: 1
  m_ReflectionProbeUsage: 1
  m_RayTracingMode: 0
  m_RayTraceProcedural: 0
  m_RenderingLayerMask: 1
  m_RendererPriority: 0
  m_Materials:
  - {fileID: 10754, guid: 0000000000000000f000000000000000, type: 0}
  m_StaticBatchInfo:
    firstSubMesh: 0
    subMeshCount: 0
  m_StaticBatchRoot: {fileID: 0}
  m_ProbeAnchor: {fileID: 0}
  m_LightProbeVolumeOverride: {fileID: 0}
  m_ScaleInLightmap: 1
  m_ReceiveGI: 1
  m_PreserveUVs: 0
  m_IgnoreNormalsForChartDetection: 0
  m_ImportantGI: 0
  m_StitchLightmapSeams: 1
  m_SelectedEditorRenderState: 0
  m_MinimumChartSize: 4
  m_AutoUVMaxDistance: 0.5
  m_AutoUVMaxAngle: 89
  m_LightmapParameters: {fileID: 0}
  m_SortingLayerID: 0
  m_SortingLayer: 0
  m_SortingOrder: 0
  m_Sprite: {fileID: 21300000, guid: cebd3f92ef898c74dba7f3064eacfded, type: 3}
  m_Color: {r: 1, g: 1, b: 1, a: 1}
  m_FlipX: 0
  m_FlipY: 0
  m_DrawMode: 0
  m_Size: {x: 98.170006, y: 64.82}
  m_AdaptiveModeThreshold: 0.5
  m_SpriteTileMode: 0
  m_WasSpriteAssigned: 1
  m_MaskInteraction: 0
  m_SpriteSortPoint: 0
--- !u!4 &2018672751
Transform:
  m_ObjectHideFlags: 0
  m_CorrespondingSourceObject: {fileID: 0}
  m_PrefabInstance: {fileID: 0}
  m_PrefabAsset: {fileID: 0}
  m_GameObject: {fileID: 2018672749}
  m_LocalRotation: {x: -0, y: -0, z: -0, w: 1}
  m_LocalPosition: {x: -79.6, y: -6.856867, z: 36.45}
  m_LocalScale: {x: 1, y: 1, z: 1}
  m_Children: []
  m_Father: {fileID: 1089428273}
  m_RootOrder: 1
  m_LocalEulerAnglesHint: {x: 0, y: 0, z: 0}
--- !u!1001 &2095721918
PrefabInstance:
  m_ObjectHideFlags: 0
  serializedVersion: 2
  m_Modification:
    m_TransformParent: {fileID: 671342889}
    m_Modifications:
    - target: {fileID: 4095090834823958, guid: 259ef83e5245a62418a1e8f725a531eb, type: 3}
      propertyPath: m_RootOrder
      value: 2
      objectReference: {fileID: 0}
    - target: {fileID: 4095090834823958, guid: 259ef83e5245a62418a1e8f725a531eb, type: 3}
      propertyPath: m_LocalPosition.x
      value: -38.5
      objectReference: {fileID: 0}
    - target: {fileID: 4095090834823958, guid: 259ef83e5245a62418a1e8f725a531eb, type: 3}
      propertyPath: m_LocalPosition.y
      value: -9.7
      objectReference: {fileID: 0}
    - target: {fileID: 4095090834823958, guid: 259ef83e5245a62418a1e8f725a531eb, type: 3}
      propertyPath: m_LocalPosition.z
      value: 0.28125
      objectReference: {fileID: 0}
    - target: {fileID: 4095090834823958, guid: 259ef83e5245a62418a1e8f725a531eb, type: 3}
      propertyPath: m_LocalRotation.w
      value: 1
      objectReference: {fileID: 0}
    - target: {fileID: 4095090834823958, guid: 259ef83e5245a62418a1e8f725a531eb, type: 3}
      propertyPath: m_LocalRotation.x
      value: -0
      objectReference: {fileID: 0}
    - target: {fileID: 4095090834823958, guid: 259ef83e5245a62418a1e8f725a531eb, type: 3}
      propertyPath: m_LocalRotation.y
      value: -0
      objectReference: {fileID: 0}
    - target: {fileID: 4095090834823958, guid: 259ef83e5245a62418a1e8f725a531eb, type: 3}
      propertyPath: m_LocalRotation.z
      value: -0
      objectReference: {fileID: 0}
    m_RemovedComponents: []
  m_SourcePrefab: {fileID: 100100000, guid: 259ef83e5245a62418a1e8f725a531eb, type: 3}
--- !u!4 &2095721919 stripped
Transform:
  m_CorrespondingSourceObject: {fileID: 4095090834823958, guid: 259ef83e5245a62418a1e8f725a531eb, type: 3}
  m_PrefabInstance: {fileID: 2095721918}
  m_PrefabAsset: {fileID: 0}
--- !u!1001 &7065504166340022492
PrefabInstance:
  m_ObjectHideFlags: 0
  serializedVersion: 2
  m_Modification:
    m_TransformParent: {fileID: 0}
    m_Modifications:
    - target: {fileID: 7065504165915727077, guid: eadd87db58106f44b9aee9bb3db4d95e, type: 3}
      propertyPath: m_Name
      value: Background
      objectReference: {fileID: 0}
    - target: {fileID: 7065504165915727078, guid: eadd87db58106f44b9aee9bb3db4d95e, type: 3}
      propertyPath: m_RootOrder
      value: 2
      objectReference: {fileID: 0}
    - target: {fileID: 7065504165915727078, guid: eadd87db58106f44b9aee9bb3db4d95e, type: 3}
      propertyPath: m_LocalPosition.x
      value: -29.7
      objectReference: {fileID: 0}
    - target: {fileID: 7065504165915727078, guid: eadd87db58106f44b9aee9bb3db4d95e, type: 3}
      propertyPath: m_LocalPosition.y
      value: 6.6
      objectReference: {fileID: 0}
    - target: {fileID: 7065504165915727078, guid: eadd87db58106f44b9aee9bb3db4d95e, type: 3}
      propertyPath: m_LocalPosition.z
      value: 14.3
      objectReference: {fileID: 0}
    - target: {fileID: 7065504165915727078, guid: eadd87db58106f44b9aee9bb3db4d95e, type: 3}
      propertyPath: m_LocalRotation.w
      value: 1
      objectReference: {fileID: 0}
    - target: {fileID: 7065504165915727078, guid: eadd87db58106f44b9aee9bb3db4d95e, type: 3}
      propertyPath: m_LocalRotation.x
      value: 0
      objectReference: {fileID: 0}
    - target: {fileID: 7065504165915727078, guid: eadd87db58106f44b9aee9bb3db4d95e, type: 3}
      propertyPath: m_LocalRotation.y
      value: 0
      objectReference: {fileID: 0}
    - target: {fileID: 7065504165915727078, guid: eadd87db58106f44b9aee9bb3db4d95e, type: 3}
      propertyPath: m_LocalRotation.z
      value: 0
      objectReference: {fileID: 0}
    - target: {fileID: 7065504165915727078, guid: eadd87db58106f44b9aee9bb3db4d95e, type: 3}
      propertyPath: m_LocalEulerAnglesHint.x
      value: 0
      objectReference: {fileID: 0}
    - target: {fileID: 7065504165915727078, guid: eadd87db58106f44b9aee9bb3db4d95e, type: 3}
      propertyPath: m_LocalEulerAnglesHint.y
      value: 0
      objectReference: {fileID: 0}
    - target: {fileID: 7065504165915727078, guid: eadd87db58106f44b9aee9bb3db4d95e, type: 3}
      propertyPath: m_LocalEulerAnglesHint.z
      value: 0
      objectReference: {fileID: 0}
    m_RemovedComponents: []
  m_SourcePrefab: {fileID: 100100000, guid: eadd87db58106f44b9aee9bb3db4d95e, type: 3}
