%YAML 1.1
%TAG !u! tag:unity3d.com,2011:
--- !u!162 &1
EditorUserSettings:
  m_ObjectHideFlags: 0
  serializedVersion: 4
  m_ConfigSettings:
    RecentlyUsedScenePath-0:
      value: 22424703114646680e0b0227036c7b151b18563f22213229
      flags: 0
    RecentlyUsedScenePath-1:
      value: 22424703114646680e0b0227036c6c111b07142f1f2b233e2867083debf42d
      flags: 0
    RecentlyUsedScenePath-2:
      value: 22424703114646680e0b0227036c72111f19563f22213229
      flags: 0
    RecentlyUsedScenePath-3:
      value: 2242470311464609294e2a2d02264c0456231126293b23246d191c30e9a00037ede976daf32333397626ee254b1b193eff1a050eb638090e1f0bb22b09fe1d031dc058e11bd15109c51008d7
      flags: 0
    RecentlyUsedScenePath-4:
      value: 2242470311464609294e2a2d02264c0456231126293b23246d191c30e9a00037ede976daf32333397626ee254b1b193eff1a050eb638090e1f0bb22b09fe1d031dc058e11bd15109c51008d7
      flags: 0
    RecentlyUsedScenePath-5:
      value: 22424703114646780c07022d036c6f190e12146a0d3a32701d251c27e4ef2635e7f576a4a70c36303503e839440e1330e2194638f50e040e5e3dde4e35fa1d1c51f61bc014cd5f518b2f15c2c11cd6e695e6c6e5c8f8a9cdd0d6b4eb
      flags: 0
    RecentlyUsedScenePath-6:
      value: 224247031146466c020c0e2e151c7315001214651b272432212c221fe7f63134b3a923e7ee2e26
      flags: 0
    RecentlyUsedScenePath-7:
      value: 22424703114646680e0b0227036c681f1415142f623d28393930
      flags: 0
    RecentlyUsedScenePath-8:
      value: 22424703114646680e0b0227036c6c041f1b0c39623d28393930
      flags: 0
    RecentlyUsedScenePath-9:
      value: 22424703114646680e0b0227036c72111f19352f223d68252320092a
      flags: 0
    vcSharedLogLevel:
      value: 0d5e400f0650
      flags: 0
  m_VCAutomaticAdd: 1
  m_VCDebugCom: 0
  m_VCDebugCmd: 0
  m_VCDebugOut: 0
  m_SemanticMergeMode: 2
  m_VCShowFailedCheckout: 1
  m_VCOverwriteFailedCheckoutAssets: 1
  m_VCProjectOverlayIcons: 1
  m_VCHierarchyOverlayIcons: 1
  m_VCOtherOverlayIcons: 1
  m_VCAllowAsyncUpdate: 1
